<?xml version="1.0" encoding="utf-8" standalone="no"?>
<!DOCTYPE svg PUBLIC "-//W3C//DTD SVG 1.1//EN"
  "http://www.w3.org/Graphics/SVG/1.1/DTD/svg11.dtd">
<svg xmlns:xlink="http://www.w3.org/1999/xlink" width="690.396016pt" height="446.500313pt" viewBox="0 0 690.396016 446.500313" xmlns="http://www.w3.org/2000/svg" version="1.1">
 <metadata>
  <rdf:RDF xmlns:dc="http://purl.org/dc/elements/1.1/" xmlns:cc="http://creativecommons.org/ns#" xmlns:rdf="http://www.w3.org/1999/02/22-rdf-syntax-ns#">
   <cc:Work>
    <dc:type rdf:resource="http://purl.org/dc/dcmitype/StillImage"/>
    <dc:date>2024-09-24T17:14:13.451243</dc:date>
    <dc:format>image/svg+xml</dc:format>
    <dc:creator>
     <cc:Agent>
      <dc:title>Matplotlib v3.8.3, https://matplotlib.org/</dc:title>
     </cc:Agent>
    </dc:creator>
   </cc:Work>
  </rdf:RDF>
 </metadata>
 <defs>
  <style type="text/css">*{stroke-linejoin: round; stroke-linecap: butt}</style>
 </defs>
 <g id="figure_1">
  <g id="patch_1">
   <path d="M 0 446.500313 
L 690.396016 446.500313 
L 690.396016 0 
L 0 0 
z
" style="fill: #ffffff"/>
  </g>
  <g id="axes_1">
   <g id="patch_2">
    <path d="M 94.83375 334.8 
L 652.83375 334.8 
L 652.83375 57.6 
L 94.83375 57.6 
z
" style="fill: #ffffff"/>
   </g>
   <g id="PolyCollection_1"/>
   <g id="matplotlib.axis_1">
    <g id="xtick_1">
     <g id="line2d_1">
      <path d="M 119.927312 334.8 
L 119.927312 57.6 
" clip-path="url(#pa2a34f67f9)" style="fill: none; stroke-dasharray: 0.8,1.32; stroke-dashoffset: 0; stroke: #000000; stroke-opacity: 0.5; stroke-width: 0.8"/>
     </g>
     <g id="line2d_2">
      <defs>
       <path id="m2eaca83192" d="M 0 0 
L 0 3.5 
" style="stroke: #000000; stroke-width: 2"/>
      </defs>
      <g>
       <use xlink:href="#m2eaca83192" x="119.927312" y="344.8" style="stroke: #000000; stroke-width: 2"/>
      </g>
     </g>
     <g id="text_1">
      <!-- 2020 -->
      <g transform="translate(100.973874 365.3) scale(0.18 -0.18)">
       <defs>
        <path id="FiraSans-Regular-32" d="M 1459 4346 
Q 1843 4346 2134 4192 
Q 2426 4038 2586 3772 
Q 2746 3507 2746 3174 
Q 2746 2784 2570 2425 
Q 2394 2067 2029 1651 
Q 1664 1235 922 493 
L 2848 493 
L 2778 0 
L 250 0 
L 250 467 
Q 1107 1357 1465 1769 
Q 1824 2182 1977 2489 
Q 2131 2797 2131 3149 
Q 2131 3482 1939 3670 
Q 1747 3859 1427 3859 
Q 1165 3859 966 3750 
Q 768 3642 557 3392 
L 160 3699 
Q 422 4026 742 4186 
Q 1062 4346 1459 4346 
z
" transform="scale(0.015625)"/>
        <path id="FiraSans-Regular-30" d="M 1786 4346 
Q 2496 4346 2857 3779 
Q 3219 3213 3219 2138 
Q 3219 1062 2857 492 
Q 2496 -77 1786 -77 
Q 1075 -77 713 492 
Q 352 1062 352 2138 
Q 352 3213 713 3779 
Q 1075 4346 1786 4346 
z
M 1786 3878 
Q 1370 3878 1168 3468 
Q 966 3059 966 2138 
Q 966 1216 1168 803 
Q 1370 390 1786 390 
Q 2195 390 2400 803 
Q 2605 1216 2605 2138 
Q 2605 3053 2400 3465 
Q 2195 3878 1786 3878 
z
" transform="scale(0.015625)"/>
       </defs>
       <use xlink:href="#FiraSans-Regular-32"/>
       <use xlink:href="#FiraSans-Regular-30" x="49.499985"/>
       <use xlink:href="#FiraSans-Regular-32" x="105.299973"/>
       <use xlink:href="#FiraSans-Regular-30" x="154.799957"/>
      </g>
      <!-- Jan -->
      <g transform="translate(107.012312 385.333438) scale(0.18 -0.18)">
       <defs>
        <path id="FiraSans-Regular-4a" d="M 1344 614 
Q 1344 -38 1059 -364 
Q 774 -691 192 -877 
L 32 -435 
Q 326 -320 473 -185 
Q 621 -51 678 141 
Q 736 333 736 640 
L 736 4410 
L 1344 4410 
L 1344 614 
z
" transform="scale(0.015625)"/>
        <path id="FiraSans-Regular-61" d="M 2880 787 
Q 2880 582 2950 483 
Q 3021 384 3162 333 
L 3027 -77 
Q 2765 -45 2605 70 
Q 2445 186 2368 429 
Q 2029 -77 1363 -77 
Q 864 -77 576 204 
Q 288 486 288 941 
Q 288 1478 675 1766 
Q 1062 2054 1773 2054 
L 2291 2054 
L 2291 2304 
Q 2291 2662 2118 2816 
Q 1946 2970 1587 2970 
Q 1216 2970 678 2790 
L 531 3219 
Q 1158 3450 1696 3450 
Q 2291 3450 2585 3158 
Q 2880 2867 2880 2330 
L 2880 787 
z
M 1498 365 
Q 2003 365 2291 890 
L 2291 1664 
L 1850 1664 
Q 915 1664 915 973 
Q 915 672 1062 518 
Q 1210 365 1498 365 
z
" transform="scale(0.015625)"/>
        <path id="FiraSans-Regular-6e" d="M 2195 3450 
Q 2656 3450 2915 3174 
Q 3174 2899 3174 2419 
L 3174 0 
L 2586 0 
L 2586 2336 
Q 2586 2694 2451 2841 
Q 2317 2989 2054 2989 
Q 1786 2989 1581 2835 
Q 1376 2682 1197 2394 
L 1197 0 
L 608 0 
L 608 3373 
L 1114 3373 
L 1165 2874 
Q 1344 3142 1609 3296 
Q 1875 3450 2195 3450 
z
" transform="scale(0.015625)"/>
       </defs>
       <use xlink:href="#FiraSans-Regular-4a"/>
       <use xlink:href="#FiraSans-Regular-61" x="30.499985"/>
       <use xlink:href="#FiraSans-Regular-6e" x="84.899979"/>
      </g>
     </g>
    </g>
    <g id="xtick_2">
     <g id="line2d_3">
      <path d="M 171.332454 334.8 
L 171.332454 57.6 
" clip-path="url(#pa2a34f67f9)" style="fill: none; stroke-dasharray: 0.8,1.32; stroke-dashoffset: 0; stroke: #000000; stroke-opacity: 0.5; stroke-width: 0.8"/>
     </g>
     <g id="line2d_4">
      <g>
       <use xlink:href="#m2eaca83192" x="171.332454" y="344.8" style="stroke: #000000; stroke-width: 2"/>
      </g>
     </g>
     <g id="text_2">
      <!-- 2020 -->
      <g transform="translate(152.379017 365.3) scale(0.18 -0.18)">
       <use xlink:href="#FiraSans-Regular-32"/>
       <use xlink:href="#FiraSans-Regular-30" x="49.499985"/>
       <use xlink:href="#FiraSans-Regular-32" x="105.299973"/>
       <use xlink:href="#FiraSans-Regular-30" x="154.799957"/>
      </g>
      <!-- Jul -->
      <g transform="translate(160.712454 385.333438) scale(0.18 -0.18)">
       <defs>
        <path id="FiraSans-Regular-75" d="M 3117 0 
L 2611 0 
L 2566 525 
Q 2374 211 2124 67 
Q 1875 -77 1517 -77 
Q 1075 -77 825 192 
Q 576 461 576 954 
L 576 3373 
L 1165 3373 
L 1165 1018 
Q 1165 672 1286 528 
Q 1408 384 1683 384 
Q 2176 384 2528 966 
L 2528 3373 
L 3117 3373 
L 3117 0 
z
" transform="scale(0.015625)"/>
        <path id="FiraSans-Regular-6c" d="M 1280 -77 
Q 954 -77 765 118 
Q 576 314 576 666 
L 576 4730 
L 1165 4800 
L 1165 678 
Q 1165 538 1213 474 
Q 1261 410 1376 410 
Q 1498 410 1594 448 
L 1747 38 
Q 1536 -77 1280 -77 
z
" transform="scale(0.015625)"/>
       </defs>
       <use xlink:href="#FiraSans-Regular-4a"/>
       <use xlink:href="#FiraSans-Regular-75" x="30.499985"/>
       <use xlink:href="#FiraSans-Regular-6c" x="88.699982"/>
      </g>
     </g>
    </g>
    <g id="xtick_3">
     <g id="line2d_5">
      <path d="M 223.302489 334.8 
L 223.302489 57.6 
" clip-path="url(#pa2a34f67f9)" style="fill: none; stroke-dasharray: 0.8,1.32; stroke-dashoffset: 0; stroke: #000000; stroke-opacity: 0.5; stroke-width: 0.8"/>
     </g>
     <g id="line2d_6">
      <g>
       <use xlink:href="#m2eaca83192" x="223.302489" y="344.8" style="stroke: #000000; stroke-width: 2"/>
      </g>
     </g>
     <g id="text_3">
      <!-- 2021 -->
      <g transform="translate(205.474051 365.3) scale(0.18 -0.18)">
       <defs>
        <path id="FiraSans-Regular-31" d="M 2067 0 
L 1478 0 
L 1478 3654 
L 480 3046 
L 224 3462 
L 1549 4282 
L 2067 4282 
L 2067 0 
z
" transform="scale(0.015625)"/>
       </defs>
       <use xlink:href="#FiraSans-Regular-32"/>
       <use xlink:href="#FiraSans-Regular-30" x="49.499985"/>
       <use xlink:href="#FiraSans-Regular-32" x="105.299973"/>
       <use xlink:href="#FiraSans-Regular-31" x="154.799957"/>
      </g>
      <!-- Jan -->
      <g transform="translate(210.387489 385.333438) scale(0.18 -0.18)">
       <use xlink:href="#FiraSans-Regular-4a"/>
       <use xlink:href="#FiraSans-Regular-61" x="30.499985"/>
       <use xlink:href="#FiraSans-Regular-6e" x="84.899979"/>
      </g>
     </g>
    </g>
    <g id="xtick_4">
     <g id="line2d_7">
      <path d="M 274.425186 334.8 
L 274.425186 57.6 
" clip-path="url(#pa2a34f67f9)" style="fill: none; stroke-dasharray: 0.8,1.32; stroke-dashoffset: 0; stroke: #000000; stroke-opacity: 0.5; stroke-width: 0.8"/>
     </g>
     <g id="line2d_8">
      <g>
       <use xlink:href="#m2eaca83192" x="274.425186" y="344.8" style="stroke: #000000; stroke-width: 2"/>
      </g>
     </g>
     <g id="text_4">
      <!-- 2021 -->
      <g transform="translate(256.596748 365.3) scale(0.18 -0.18)">
       <use xlink:href="#FiraSans-Regular-32"/>
       <use xlink:href="#FiraSans-Regular-30" x="49.499985"/>
       <use xlink:href="#FiraSans-Regular-32" x="105.299973"/>
       <use xlink:href="#FiraSans-Regular-31" x="154.799957"/>
      </g>
      <!-- Jul -->
      <g transform="translate(263.805186 385.333438) scale(0.18 -0.18)">
       <use xlink:href="#FiraSans-Regular-4a"/>
       <use xlink:href="#FiraSans-Regular-75" x="30.499985"/>
       <use xlink:href="#FiraSans-Regular-6c" x="88.699982"/>
      </g>
     </g>
    </g>
    <g id="xtick_5">
     <g id="line2d_9">
      <path d="M 326.39522 334.8 
L 326.39522 57.6 
" clip-path="url(#pa2a34f67f9)" style="fill: none; stroke-dasharray: 0.8,1.32; stroke-dashoffset: 0; stroke: #000000; stroke-opacity: 0.5; stroke-width: 0.8"/>
     </g>
     <g id="line2d_10">
      <g>
       <use xlink:href="#m2eaca83192" x="326.39522" y="344.8" style="stroke: #000000; stroke-width: 2"/>
      </g>
     </g>
     <g id="text_5">
      <!-- 2022 -->
      <g transform="translate(308.008501 365.3) scale(0.18 -0.18)">
       <use xlink:href="#FiraSans-Regular-32"/>
       <use xlink:href="#FiraSans-Regular-30" x="49.499985"/>
       <use xlink:href="#FiraSans-Regular-32" x="105.299973"/>
       <use xlink:href="#FiraSans-Regular-32" x="154.799957"/>
      </g>
      <!-- Jan -->
      <g transform="translate(313.48022 385.333438) scale(0.18 -0.18)">
       <use xlink:href="#FiraSans-Regular-4a"/>
       <use xlink:href="#FiraSans-Regular-61" x="30.499985"/>
       <use xlink:href="#FiraSans-Regular-6e" x="84.899979"/>
      </g>
     </g>
    </g>
    <g id="xtick_6">
     <g id="line2d_11">
      <path d="M 377.517917 334.8 
L 377.517917 57.6 
" clip-path="url(#pa2a34f67f9)" style="fill: none; stroke-dasharray: 0.8,1.32; stroke-dashoffset: 0; stroke: #000000; stroke-opacity: 0.5; stroke-width: 0.8"/>
     </g>
     <g id="line2d_12">
      <g>
       <use xlink:href="#m2eaca83192" x="377.517917" y="344.8" style="stroke: #000000; stroke-width: 2"/>
      </g>
     </g>
     <g id="text_6">
      <!-- 2022 -->
      <g transform="translate(359.131198 365.3) scale(0.18 -0.18)">
       <use xlink:href="#FiraSans-Regular-32"/>
       <use xlink:href="#FiraSans-Regular-30" x="49.499985"/>
       <use xlink:href="#FiraSans-Regular-32" x="105.299973"/>
       <use xlink:href="#FiraSans-Regular-32" x="154.799957"/>
      </g>
      <!-- Jul -->
      <g transform="translate(366.897917 385.333438) scale(0.18 -0.18)">
       <use xlink:href="#FiraSans-Regular-4a"/>
       <use xlink:href="#FiraSans-Regular-75" x="30.499985"/>
       <use xlink:href="#FiraSans-Regular-6c" x="88.699982"/>
      </g>
     </g>
    </g>
    <g id="xtick_7">
     <g id="line2d_13">
      <path d="M 429.487952 334.8 
L 429.487952 57.6 
" clip-path="url(#pa2a34f67f9)" style="fill: none; stroke-dasharray: 0.8,1.32; stroke-dashoffset: 0; stroke: #000000; stroke-opacity: 0.5; stroke-width: 0.8"/>
     </g>
     <g id="line2d_14">
      <g>
       <use xlink:href="#m2eaca83192" x="429.487952" y="344.8" style="stroke: #000000; stroke-width: 2"/>
      </g>
     </g>
     <g id="text_7">
      <!-- 2023 -->
      <g transform="translate(411.06467 365.3) scale(0.18 -0.18)">
       <defs>
        <path id="FiraSans-Regular-33" d="M 1440 4346 
Q 1837 4346 2121 4198 
Q 2406 4051 2556 3801 
Q 2707 3552 2707 3258 
Q 2707 2867 2480 2614 
Q 2253 2362 1875 2272 
Q 2304 2234 2573 1965 
Q 2842 1696 2842 1235 
Q 2842 864 2662 563 
Q 2483 262 2150 92 
Q 1818 -77 1382 -77 
Q 992 -77 665 67 
Q 339 211 96 499 
L 448 826 
Q 659 608 880 505 
Q 1101 403 1363 403 
Q 1766 403 1996 630 
Q 2227 858 2227 1242 
Q 2227 1664 2009 1837 
Q 1792 2010 1376 2010 
L 1056 2010 
L 1126 2464 
L 1344 2464 
Q 1677 2464 1897 2662 
Q 2118 2861 2118 3219 
Q 2118 3520 1926 3696 
Q 1734 3872 1408 3872 
Q 1158 3872 950 3782 
Q 742 3693 525 3488 
L 218 3840 
Q 762 4346 1440 4346 
z
" transform="scale(0.015625)"/>
       </defs>
       <use xlink:href="#FiraSans-Regular-32"/>
       <use xlink:href="#FiraSans-Regular-30" x="49.499985"/>
       <use xlink:href="#FiraSans-Regular-32" x="105.299973"/>
       <use xlink:href="#FiraSans-Regular-33" x="154.799957"/>
      </g>
      <!-- Jan -->
      <g transform="translate(416.572952 385.333438) scale(0.18 -0.18)">
       <use xlink:href="#FiraSans-Regular-4a"/>
       <use xlink:href="#FiraSans-Regular-61" x="30.499985"/>
       <use xlink:href="#FiraSans-Regular-6e" x="84.899979"/>
      </g>
     </g>
    </g>
    <g id="xtick_8">
     <g id="line2d_15">
      <path d="M 480.610648 334.8 
L 480.610648 57.6 
" clip-path="url(#pa2a34f67f9)" style="fill: none; stroke-dasharray: 0.8,1.32; stroke-dashoffset: 0; stroke: #000000; stroke-opacity: 0.5; stroke-width: 0.8"/>
     </g>
     <g id="line2d_16">
      <g>
       <use xlink:href="#m2eaca83192" x="480.610648" y="344.8" style="stroke: #000000; stroke-width: 2"/>
      </g>
     </g>
     <g id="text_8">
      <!-- 2023 -->
      <g transform="translate(462.187367 365.3) scale(0.18 -0.18)">
       <use xlink:href="#FiraSans-Regular-32"/>
       <use xlink:href="#FiraSans-Regular-30" x="49.499985"/>
       <use xlink:href="#FiraSans-Regular-32" x="105.299973"/>
       <use xlink:href="#FiraSans-Regular-33" x="154.799957"/>
      </g>
      <!-- Jul -->
      <g transform="translate(469.990648 385.333438) scale(0.18 -0.18)">
       <use xlink:href="#FiraSans-Regular-4a"/>
       <use xlink:href="#FiraSans-Regular-75" x="30.499985"/>
       <use xlink:href="#FiraSans-Regular-6c" x="88.699982"/>
      </g>
     </g>
    </g>
    <g id="xtick_9">
     <g id="line2d_17">
      <path d="M 532.580683 334.8 
L 532.580683 57.6 
" clip-path="url(#pa2a34f67f9)" style="fill: none; stroke-dasharray: 0.8,1.32; stroke-dashoffset: 0; stroke: #000000; stroke-opacity: 0.5; stroke-width: 0.8"/>
     </g>
     <g id="line2d_18">
      <g>
       <use xlink:href="#m2eaca83192" x="532.580683" y="344.8" style="stroke: #000000; stroke-width: 2"/>
      </g>
     </g>
     <g id="text_9">
      <!-- 2024 -->
      <g transform="translate(513.860683 365.3) scale(0.18 -0.18)">
       <defs>
        <path id="FiraSans-Regular-34" d="M 3213 1056 
L 2656 1056 
L 2656 0 
L 2086 0 
L 2086 1056 
L 256 1056 
L 256 1478 
L 1542 4346 
L 2035 4141 
L 877 1523 
L 2093 1523 
L 2144 2675 
L 2656 2675 
L 2656 1523 
L 3213 1523 
L 3213 1056 
z
" transform="scale(0.015625)"/>
       </defs>
       <use xlink:href="#FiraSans-Regular-32"/>
       <use xlink:href="#FiraSans-Regular-30" x="49.499985"/>
       <use xlink:href="#FiraSans-Regular-32" x="105.299973"/>
       <use xlink:href="#FiraSans-Regular-34" x="154.799957"/>
      </g>
      <!-- Jan -->
      <g transform="translate(519.665683 385.333438) scale(0.18 -0.18)">
       <use xlink:href="#FiraSans-Regular-4a"/>
       <use xlink:href="#FiraSans-Regular-61" x="30.499985"/>
       <use xlink:href="#FiraSans-Regular-6e" x="84.899979"/>
      </g>
     </g>
    </g>
    <g id="xtick_10">
     <g id="line2d_19">
      <path d="M 583.985826 334.8 
L 583.985826 57.6 
" clip-path="url(#pa2a34f67f9)" style="fill: none; stroke-dasharray: 0.8,1.32; stroke-dashoffset: 0; stroke: #000000; stroke-opacity: 0.5; stroke-width: 0.8"/>
     </g>
     <g id="line2d_20">
      <g>
       <use xlink:href="#m2eaca83192" x="583.985826" y="344.8" style="stroke: #000000; stroke-width: 2"/>
      </g>
     </g>
     <g id="text_10">
      <!-- 2024 -->
      <g transform="translate(565.265826 365.3) scale(0.18 -0.18)">
       <use xlink:href="#FiraSans-Regular-32"/>
       <use xlink:href="#FiraSans-Regular-30" x="49.499985"/>
       <use xlink:href="#FiraSans-Regular-32" x="105.299973"/>
       <use xlink:href="#FiraSans-Regular-34" x="154.799957"/>
      </g>
      <!-- Jul -->
      <g transform="translate(573.365826 385.333438) scale(0.18 -0.18)">
       <use xlink:href="#FiraSans-Regular-4a"/>
       <use xlink:href="#FiraSans-Regular-75" x="30.499985"/>
       <use xlink:href="#FiraSans-Regular-6c" x="88.699982"/>
      </g>
     </g>
    </g>
    <g id="xtick_11">
     <g id="line2d_21">
      <path d="M 635.95586 334.8 
L 635.95586 57.6 
" clip-path="url(#pa2a34f67f9)" style="fill: none; stroke-dasharray: 0.8,1.32; stroke-dashoffset: 0; stroke: #000000; stroke-opacity: 0.5; stroke-width: 0.8"/>
     </g>
     <g id="line2d_22">
      <g>
       <use xlink:href="#m2eaca83192" x="635.95586" y="344.8" style="stroke: #000000; stroke-width: 2"/>
      </g>
     </g>
     <g id="text_11">
      <!-- 2025 -->
      <g transform="translate(617.515704 365.3) scale(0.18 -0.18)">
       <defs>
        <path id="FiraSans-Regular-35" d="M 2688 3821 
L 1018 3821 
L 1018 2560 
Q 1344 2726 1702 2726 
Q 2253 2726 2585 2364 
Q 2918 2003 2918 1370 
Q 2918 947 2732 617 
Q 2547 288 2211 105 
Q 1875 -77 1434 -77 
Q 1043 -77 736 60 
Q 429 198 166 467 
L 525 813 
Q 717 602 934 502 
Q 1152 403 1427 403 
Q 1837 403 2070 659 
Q 2304 915 2304 1382 
Q 2304 1850 2093 2061 
Q 1882 2272 1523 2272 
Q 1357 2272 1216 2237 
Q 1075 2202 915 2125 
L 454 2125 
L 454 4282 
L 2771 4282 
L 2688 3821 
z
" transform="scale(0.015625)"/>
       </defs>
       <use xlink:href="#FiraSans-Regular-32"/>
       <use xlink:href="#FiraSans-Regular-30" x="49.499985"/>
       <use xlink:href="#FiraSans-Regular-32" x="105.299973"/>
       <use xlink:href="#FiraSans-Regular-35" x="154.799957"/>
      </g>
      <!-- Jan -->
      <g transform="translate(623.04086 385.333438) scale(0.18 -0.18)">
       <use xlink:href="#FiraSans-Regular-4a"/>
       <use xlink:href="#FiraSans-Regular-61" x="30.499985"/>
       <use xlink:href="#FiraSans-Regular-6e" x="84.899979"/>
      </g>
     </g>
    </g>
    <g id="xtick_12">
     <g id="line2d_23">
      <path d="M 145.629883 334.8 
L 145.629883 57.6 
" clip-path="url(#pa2a34f67f9)" style="fill: none; stroke-dasharray: 0.8,1.32; stroke-dashoffset: 0; stroke: #000000; stroke-opacity: 0.2; stroke-width: 0.8"/>
     </g>
     <g id="line2d_24">
      <defs>
       <path id="m08faed887e" d="M 0 0 
L 0 2 
" style="stroke: #000000; stroke-width: 2"/>
      </defs>
      <g>
       <use xlink:href="#m08faed887e" x="145.629883" y="344.8" style="stroke: #000000; stroke-width: 2"/>
      </g>
     </g>
    </g>
    <g id="xtick_13">
     <g id="line2d_25">
      <path d="M 197.317472 334.8 
L 197.317472 57.6 
" clip-path="url(#pa2a34f67f9)" style="fill: none; stroke-dasharray: 0.8,1.32; stroke-dashoffset: 0; stroke: #000000; stroke-opacity: 0.2; stroke-width: 0.8"/>
     </g>
     <g id="line2d_26">
      <g>
       <use xlink:href="#m08faed887e" x="197.317472" y="344.8" style="stroke: #000000; stroke-width: 2"/>
      </g>
     </g>
    </g>
    <g id="xtick_14">
     <g id="line2d_27">
      <path d="M 248.722614 334.8 
L 248.722614 57.6 
" clip-path="url(#pa2a34f67f9)" style="fill: none; stroke-dasharray: 0.8,1.32; stroke-dashoffset: 0; stroke: #000000; stroke-opacity: 0.2; stroke-width: 0.8"/>
     </g>
     <g id="line2d_28">
      <g>
       <use xlink:href="#m08faed887e" x="248.722614" y="344.8" style="stroke: #000000; stroke-width: 2"/>
      </g>
     </g>
    </g>
    <g id="xtick_15">
     <g id="line2d_29">
      <path d="M 300.410203 334.8 
L 300.410203 57.6 
" clip-path="url(#pa2a34f67f9)" style="fill: none; stroke-dasharray: 0.8,1.32; stroke-dashoffset: 0; stroke: #000000; stroke-opacity: 0.2; stroke-width: 0.8"/>
     </g>
     <g id="line2d_30">
      <g>
       <use xlink:href="#m08faed887e" x="300.410203" y="344.8" style="stroke: #000000; stroke-width: 2"/>
      </g>
     </g>
    </g>
    <g id="xtick_16">
     <g id="line2d_31">
      <path d="M 351.815346 334.8 
L 351.815346 57.6 
" clip-path="url(#pa2a34f67f9)" style="fill: none; stroke-dasharray: 0.8,1.32; stroke-dashoffset: 0; stroke: #000000; stroke-opacity: 0.2; stroke-width: 0.8"/>
     </g>
     <g id="line2d_32">
      <g>
       <use xlink:href="#m08faed887e" x="351.815346" y="344.8" style="stroke: #000000; stroke-width: 2"/>
      </g>
     </g>
    </g>
    <g id="xtick_17">
     <g id="line2d_33">
      <path d="M 403.502934 334.8 
L 403.502934 57.6 
" clip-path="url(#pa2a34f67f9)" style="fill: none; stroke-dasharray: 0.8,1.32; stroke-dashoffset: 0; stroke: #000000; stroke-opacity: 0.2; stroke-width: 0.8"/>
     </g>
     <g id="line2d_34">
      <g>
       <use xlink:href="#m08faed887e" x="403.502934" y="344.8" style="stroke: #000000; stroke-width: 2"/>
      </g>
     </g>
    </g>
    <g id="xtick_18">
     <g id="line2d_35">
      <path d="M 454.908077 334.8 
L 454.908077 57.6 
" clip-path="url(#pa2a34f67f9)" style="fill: none; stroke-dasharray: 0.8,1.32; stroke-dashoffset: 0; stroke: #000000; stroke-opacity: 0.2; stroke-width: 0.8"/>
     </g>
     <g id="line2d_36">
      <g>
       <use xlink:href="#m08faed887e" x="454.908077" y="344.8" style="stroke: #000000; stroke-width: 2"/>
      </g>
     </g>
    </g>
    <g id="xtick_19">
     <g id="line2d_37">
      <path d="M 506.595666 334.8 
L 506.595666 57.6 
" clip-path="url(#pa2a34f67f9)" style="fill: none; stroke-dasharray: 0.8,1.32; stroke-dashoffset: 0; stroke: #000000; stroke-opacity: 0.2; stroke-width: 0.8"/>
     </g>
     <g id="line2d_38">
      <g>
       <use xlink:href="#m08faed887e" x="506.595666" y="344.8" style="stroke: #000000; stroke-width: 2"/>
      </g>
     </g>
    </g>
    <g id="xtick_20">
     <g id="line2d_39">
      <path d="M 558.283254 334.8 
L 558.283254 57.6 
" clip-path="url(#pa2a34f67f9)" style="fill: none; stroke-dasharray: 0.8,1.32; stroke-dashoffset: 0; stroke: #000000; stroke-opacity: 0.2; stroke-width: 0.8"/>
     </g>
     <g id="line2d_40">
      <g>
       <use xlink:href="#m08faed887e" x="558.283254" y="344.8" style="stroke: #000000; stroke-width: 2"/>
      </g>
     </g>
    </g>
    <g id="xtick_21">
     <g id="line2d_41">
      <path d="M 609.970843 334.8 
L 609.970843 57.6 
" clip-path="url(#pa2a34f67f9)" style="fill: none; stroke-dasharray: 0.8,1.32; stroke-dashoffset: 0; stroke: #000000; stroke-opacity: 0.2; stroke-width: 0.8"/>
     </g>
     <g id="line2d_42">
      <g>
       <use xlink:href="#m08faed887e" x="609.970843" y="344.8" style="stroke: #000000; stroke-width: 2"/>
      </g>
     </g>
    </g>
    <g id="text_12">
     <!-- Before created date -->
     <g transform="translate(292.268438 406.666875) scale(0.18 -0.18)">
      <defs>
       <path id="FiraSans-Regular-42" d="M 2586 2330 
Q 3040 2253 3321 2009 
Q 3603 1766 3603 1254 
Q 3603 0 1856 0 
L 640 0 
L 640 4410 
L 1683 4410 
Q 2522 4410 2966 4134 
Q 3411 3859 3411 3296 
Q 3411 2912 3171 2656 
Q 2931 2400 2586 2330 
z
M 1248 3930 
L 1248 2541 
L 1914 2541 
Q 2298 2541 2544 2726 
Q 2790 2912 2790 3251 
Q 2790 3635 2531 3782 
Q 2272 3930 1747 3930 
L 1248 3930 
z
M 1856 486 
Q 2394 486 2678 646 
Q 2963 806 2963 1254 
Q 2963 1690 2688 1882 
Q 2413 2074 1971 2074 
L 1248 2074 
L 1248 486 
L 1856 486 
z
" transform="scale(0.015625)"/>
       <path id="FiraSans-Regular-65" d="M 3155 1786 
Q 3155 1638 3142 1485 
L 992 1485 
Q 1030 928 1273 665 
Q 1517 403 1901 403 
Q 2144 403 2349 473 
Q 2554 544 2778 698 
L 3034 346 
Q 2496 -77 1856 -77 
Q 1152 -77 758 384 
Q 365 845 365 1651 
Q 365 2176 534 2582 
Q 704 2989 1021 3219 
Q 1338 3450 1766 3450 
Q 2438 3450 2796 3008 
Q 3155 2566 3155 1786 
z
M 2573 1958 
Q 2573 2458 2374 2720 
Q 2176 2982 1779 2982 
Q 1056 2982 992 1920 
L 2573 1920 
L 2573 1958 
z
" transform="scale(0.015625)"/>
       <path id="FiraSans-Regular-66" d="M 1754 4326 
Q 1485 4326 1369 4208 
Q 1254 4090 1254 3840 
L 1254 3373 
L 2074 3373 
L 2010 2918 
L 1254 2918 
L 1254 0 
L 666 0 
L 666 2918 
L 64 2918 
L 64 3373 
L 666 3373 
L 666 3834 
Q 666 4269 944 4534 
Q 1222 4800 1722 4800 
Q 1952 4800 2134 4758 
Q 2317 4717 2528 4627 
L 2342 4198 
Q 2054 4326 1754 4326 
z
" transform="scale(0.015625)"/>
       <path id="FiraSans-Regular-6f" d="M 1875 3450 
Q 2586 3450 2979 2976 
Q 3373 2502 3373 1690 
Q 3373 1165 3193 765 
Q 3014 365 2675 144 
Q 2336 -77 1869 -77 
Q 1158 -77 761 396 
Q 365 870 365 1683 
Q 365 2208 544 2608 
Q 723 3008 1062 3229 
Q 1402 3450 1875 3450 
z
M 1875 2976 
Q 998 2976 998 1683 
Q 998 397 1869 397 
Q 2739 397 2739 1690 
Q 2739 2976 1875 2976 
z
" transform="scale(0.015625)"/>
       <path id="FiraSans-Regular-72" d="M 2074 3450 
Q 2253 3450 2406 3411 
L 2298 2835 
Q 2144 2874 2003 2874 
Q 1690 2874 1498 2643 
Q 1306 2413 1197 1926 
L 1197 0 
L 608 0 
L 608 3373 
L 1114 3373 
L 1171 2688 
Q 1306 3066 1536 3258 
Q 1766 3450 2074 3450 
z
" transform="scale(0.015625)"/>
       <path id="FiraSans-Regular-20" transform="scale(0.015625)"/>
       <path id="FiraSans-Regular-63" d="M 1837 3450 
Q 2138 3450 2387 3363 
Q 2637 3277 2867 3085 
L 2586 2714 
Q 2406 2842 2236 2902 
Q 2067 2963 1862 2963 
Q 1453 2963 1225 2636 
Q 998 2310 998 1670 
Q 998 1030 1222 726 
Q 1446 422 1862 422 
Q 2061 422 2227 483 
Q 2394 544 2598 678 
L 2867 294 
Q 2406 -77 1837 -77 
Q 1152 -77 758 384 
Q 365 845 365 1658 
Q 365 2195 544 2598 
Q 723 3002 1052 3226 
Q 1382 3450 1837 3450 
z
" transform="scale(0.015625)"/>
       <path id="FiraSans-Regular-74" d="M 2310 154 
Q 1978 -77 1555 -77 
Q 1126 -77 886 169 
Q 646 416 646 883 
L 646 2918 
L 58 2918 
L 58 3373 
L 646 3373 
L 646 4134 
L 1235 4205 
L 1235 3373 
L 2035 3373 
L 1971 2918 
L 1235 2918 
L 1235 909 
Q 1235 646 1328 528 
Q 1421 410 1638 410 
Q 1850 410 2086 557 
L 2310 154 
z
" transform="scale(0.015625)"/>
       <path id="FiraSans-Regular-64" d="M 3219 4730 
L 3219 0 
L 2701 0 
L 2643 467 
Q 2477 211 2227 67 
Q 1978 -77 1670 -77 
Q 1069 -77 733 396 
Q 397 870 397 1670 
Q 397 2189 557 2592 
Q 717 2995 1017 3222 
Q 1318 3450 1722 3450 
Q 2240 3450 2630 3034 
L 2630 4800 
L 3219 4730 
z
M 1798 390 
Q 2067 390 2259 515 
Q 2451 640 2630 890 
L 2630 2541 
Q 2464 2758 2275 2870 
Q 2086 2982 1850 2982 
Q 1459 2982 1244 2656 
Q 1030 2330 1030 1683 
Q 1030 1030 1228 710 
Q 1427 390 1798 390 
z
" transform="scale(0.015625)"/>
      </defs>
      <use xlink:href="#FiraSans-Regular-42"/>
      <use xlink:href="#FiraSans-Regular-65" x="60.799988"/>
      <use xlink:href="#FiraSans-Regular-66" x="115.799973"/>
      <use xlink:href="#FiraSans-Regular-6f" x="149.299957"/>
      <use xlink:href="#FiraSans-Regular-72" x="207.699951"/>
      <use xlink:href="#FiraSans-Regular-65" x="246.299942"/>
      <use xlink:href="#FiraSans-Regular-20" x="301.299927"/>
      <use xlink:href="#FiraSans-Regular-63" x="327.799911"/>
      <use xlink:href="#FiraSans-Regular-72" x="375.599899"/>
      <use xlink:href="#FiraSans-Regular-65" x="414.19989"/>
      <use xlink:href="#FiraSans-Regular-61" x="469.199875"/>
      <use xlink:href="#FiraSans-Regular-74" x="523.599869"/>
      <use xlink:href="#FiraSans-Regular-65" x="559.69986"/>
      <use xlink:href="#FiraSans-Regular-64" x="614.699844"/>
      <use xlink:href="#FiraSans-Regular-20" x="674.499832"/>
      <use xlink:href="#FiraSans-Regular-64" x="700.999817"/>
      <use xlink:href="#FiraSans-Regular-61" x="760.799805"/>
      <use xlink:href="#FiraSans-Regular-74" x="815.199799"/>
      <use xlink:href="#FiraSans-Regular-65" x="851.299789"/>
     </g>
    </g>
   </g>
   <g id="matplotlib.axis_2">
    <g id="ytick_1">
     <g id="line2d_43">
      <defs>
       <path id="m4fbc948604" d="M 0 0 
L -3.5 0 
" style="stroke: #000000; stroke-width: 2"/>
      </defs>
      <g>
       <use xlink:href="#m4fbc948604" x="84.83375" y="322.2" style="stroke: #000000; stroke-width: 2"/>
      </g>
     </g>
     <g id="text_13">
      <!-- 0 -->
      <g transform="translate(67.790313 328.95) scale(0.18 -0.18)">
       <use xlink:href="#FiraSans-Regular-30"/>
      </g>
     </g>
    </g>
    <g id="ytick_2">
     <g id="line2d_44">
      <g>
       <use xlink:href="#m4fbc948604" x="84.83375" y="268.582979" style="stroke: #000000; stroke-width: 2"/>
      </g>
     </g>
     <g id="text_14">
      <!-- 20 -->
      <g transform="translate(58.880313 275.332979) scale(0.18 -0.18)">
       <use xlink:href="#FiraSans-Regular-32"/>
       <use xlink:href="#FiraSans-Regular-30" x="49.499985"/>
      </g>
     </g>
    </g>
    <g id="ytick_3">
     <g id="line2d_45">
      <g>
       <use xlink:href="#m4fbc948604" x="84.83375" y="214.965957" style="stroke: #000000; stroke-width: 2"/>
      </g>
     </g>
     <g id="text_15">
      <!-- 40 -->
      <g transform="translate(58.21375 221.715957) scale(0.18 -0.18)">
       <use xlink:href="#FiraSans-Regular-34"/>
       <use xlink:href="#FiraSans-Regular-30" x="53.199997"/>
      </g>
     </g>
    </g>
    <g id="ytick_4">
     <g id="line2d_46">
      <g>
       <use xlink:href="#m4fbc948604" x="84.83375" y="161.348936" style="stroke: #000000; stroke-width: 2"/>
      </g>
     </g>
     <g id="text_16">
      <!-- 60 -->
      <g transform="translate(58.196875 168.098936) scale(0.18 -0.18)">
       <defs>
        <path id="FiraSans-Regular-36" d="M 1971 2816 
Q 2298 2816 2566 2662 
Q 2835 2509 2995 2201 
Q 3155 1894 3155 1453 
Q 3155 998 2972 649 
Q 2790 301 2480 112 
Q 2170 -77 1792 -77 
Q 1043 -77 697 476 
Q 352 1030 352 2010 
Q 352 2707 547 3235 
Q 742 3763 1107 4054 
Q 1472 4346 1971 4346 
Q 2458 4346 2854 4083 
L 2624 3693 
Q 2323 3878 1965 3878 
Q 1504 3878 1235 3436 
Q 966 2995 941 2253 
Q 1338 2816 1971 2816 
z
M 1792 390 
Q 2163 390 2361 672 
Q 2560 954 2560 1434 
Q 2560 2349 1869 2349 
Q 1587 2349 1350 2192 
Q 1114 2035 947 1760 
Q 966 1056 1168 723 
Q 1370 390 1792 390 
z
" transform="scale(0.015625)"/>
       </defs>
       <use xlink:href="#FiraSans-Regular-36"/>
       <use xlink:href="#FiraSans-Regular-30" x="53.299988"/>
      </g>
     </g>
    </g>
    <g id="ytick_5">
     <g id="line2d_47">
      <g>
       <use xlink:href="#m4fbc948604" x="84.83375" y="107.731915" style="stroke: #000000; stroke-width: 2"/>
      </g>
     </g>
     <g id="text_17">
      <!-- 80 -->
      <g transform="translate(57.873438 114.481915) scale(0.18 -0.18)">
       <defs>
        <path id="FiraSans-Regular-38" d="M 2336 2298 
Q 3238 1933 3238 1146 
Q 3238 794 3049 515 
Q 2861 237 2521 80 
Q 2182 -77 1754 -77 
Q 1318 -77 985 76 
Q 653 230 470 505 
Q 288 781 288 1133 
Q 288 1530 502 1798 
Q 717 2067 1133 2246 
Q 794 2419 630 2665 
Q 467 2912 467 3245 
Q 467 3590 649 3840 
Q 832 4090 1129 4218 
Q 1427 4346 1766 4346 
Q 2099 4346 2396 4224 
Q 2694 4102 2880 3856 
Q 3066 3610 3066 3264 
Q 3066 2944 2886 2713 
Q 2707 2483 2336 2298 
z
M 1766 3904 
Q 1434 3904 1238 3731 
Q 1043 3558 1043 3238 
Q 1043 2931 1232 2771 
Q 1421 2611 1837 2477 
L 1946 2438 
Q 2234 2605 2362 2790 
Q 2490 2976 2490 3245 
Q 2490 3546 2301 3725 
Q 2112 3904 1766 3904 
z
M 1760 390 
Q 2157 390 2390 595 
Q 2624 800 2624 1139 
Q 2624 1370 2534 1526 
Q 2445 1683 2246 1801 
Q 2048 1920 1690 2042 
L 1530 2099 
Q 1210 1946 1056 1712 
Q 902 1478 902 1133 
Q 902 781 1132 585 
Q 1363 390 1760 390 
z
" transform="scale(0.015625)"/>
       </defs>
       <use xlink:href="#FiraSans-Regular-38"/>
       <use xlink:href="#FiraSans-Regular-30" x="55.099991"/>
      </g>
     </g>
    </g>
    <g id="text_18">
     <!-- # unique affiliations -->
     <g transform="translate(50.04 278.263125) rotate(-90) scale(0.18 -0.18)">
      <defs>
       <path id="FiraSans-Regular-23" d="M 2733 2861 
L 2554 1485 
L 2982 1485 
L 2982 1043 
L 2490 1043 
L 2355 0 
L 1856 0 
L 1990 1043 
L 1005 1043 
L 870 0 
L 371 0 
L 506 1043 
L 96 1043 
L 96 1485 
L 570 1485 
L 749 2861 
L 333 2861 
L 333 3309 
L 806 3309 
L 934 4282 
L 1434 4282 
L 1306 3309 
L 2291 3309 
L 2419 4282 
L 2918 4282 
L 2790 3309 
L 3219 3309 
L 3219 2861 
L 2733 2861 
z
M 2234 2861 
L 1248 2861 
L 1069 1485 
L 2054 1485 
L 2234 2861 
z
" transform="scale(0.015625)"/>
       <path id="FiraSans-Regular-69" d="M 1197 0 
L 608 0 
L 608 3373 
L 1197 3373 
L 1197 0 
z
M 896 4992 
Q 1082 4992 1197 4877 
Q 1312 4762 1312 4589 
Q 1312 4416 1197 4304 
Q 1082 4192 896 4192 
Q 717 4192 601 4304 
Q 486 4416 486 4589 
Q 486 4762 601 4877 
Q 717 4992 896 4992 
z
" transform="scale(0.015625)"/>
       <path id="FiraSans-Regular-71" d="M 3187 3373 
L 3187 -1363 
L 2598 -1293 
L 2598 448 
Q 2432 198 2185 60 
Q 1939 -77 1638 -77 
Q 1037 -77 701 396 
Q 365 870 365 1670 
Q 365 2189 525 2592 
Q 685 2995 985 3222 
Q 1286 3450 1690 3450 
Q 2227 3450 2637 2995 
L 2682 3373 
L 3187 3373 
z
M 1766 390 
Q 2035 390 2227 515 
Q 2419 640 2598 890 
L 2598 2541 
Q 2432 2758 2243 2870 
Q 2054 2982 1818 2982 
Q 1427 2982 1212 2656 
Q 998 2330 998 1683 
Q 998 1030 1196 710 
Q 1395 390 1766 390 
z
" transform="scale(0.015625)"/>
       <path id="FiraSans-Regular-73" d="M 1523 3450 
Q 1869 3450 2144 3354 
Q 2419 3258 2669 3066 
L 2419 2694 
Q 2189 2842 1981 2912 
Q 1773 2982 1542 2982 
Q 1254 2982 1088 2864 
Q 922 2746 922 2541 
Q 922 2336 1078 2221 
Q 1235 2106 1645 1997 
Q 2208 1856 2486 1613 
Q 2765 1370 2765 947 
Q 2765 448 2377 185 
Q 1990 -77 1434 -77 
Q 666 -77 160 365 
L 474 723 
Q 902 397 1421 397 
Q 1754 397 1949 534 
Q 2144 672 2144 909 
Q 2144 1082 2073 1187 
Q 2003 1293 1830 1373 
Q 1658 1453 1325 1542 
Q 787 1683 547 1920 
Q 307 2157 307 2522 
Q 307 2784 464 2998 
Q 621 3213 899 3331 
Q 1178 3450 1523 3450 
z
" transform="scale(0.015625)"/>
      </defs>
      <use xlink:href="#FiraSans-Regular-23"/>
      <use xlink:href="#FiraSans-Regular-20" x="51.799988"/>
      <use xlink:href="#FiraSans-Regular-75" x="78.299973"/>
      <use xlink:href="#FiraSans-Regular-6e" x="136.499969"/>
      <use xlink:href="#FiraSans-Regular-69" x="195.09996"/>
      <use xlink:href="#FiraSans-Regular-71" x="223.299957"/>
      <use xlink:href="#FiraSans-Regular-75" x="282.599945"/>
      <use xlink:href="#FiraSans-Regular-65" x="340.799942"/>
      <use xlink:href="#FiraSans-Regular-20" x="395.799927"/>
      <use xlink:href="#FiraSans-Regular-61" x="422.299911"/>
      <use xlink:href="#FiraSans-Regular-66" x="476.699905"/>
      <use xlink:href="#FiraSans-Regular-66" x="510.19989"/>
      <use xlink:href="#FiraSans-Regular-69" x="543.699875"/>
      <use xlink:href="#FiraSans-Regular-6c" x="571.899872"/>
      <use xlink:href="#FiraSans-Regular-69" x="601.19986"/>
      <use xlink:href="#FiraSans-Regular-61" x="629.399857"/>
      <use xlink:href="#FiraSans-Regular-74" x="683.79985"/>
      <use xlink:href="#FiraSans-Regular-69" x="719.899841"/>
      <use xlink:href="#FiraSans-Regular-6f" x="748.099838"/>
      <use xlink:href="#FiraSans-Regular-6e" x="806.499832"/>
      <use xlink:href="#FiraSans-Regular-73" x="865.099823"/>
     </g>
    </g>
   </g>
   <g id="line2d_48">
    <path d="M 120.197386 322.2 
L 128.953207 322.2 
L 137.144137 322.2 
L 145.899958 284.668085 
L 154.373333 281.987234 
L 163.129154 281.987234 
L 171.602529 279.306383 
L 180.35835 276.625532 
L 189.114171 268.582979 
L 197.587546 268.582979 
L 206.343367 268.582979 
L 214.816743 268.582979 
L 223.572564 268.582979 
L 232.328385 263.221277 
L 240.236868 263.221277 
L 248.992689 263.221277 
L 257.466064 263.221277 
L 266.221885 257.859574 
L 274.69526 257.859574 
L 283.451081 255.178723 
L 292.206902 239.093617 
L 300.680278 239.093617 
L 309.436099 236.412766 
L 317.909474 231.051064 
L 326.665295 220.32766 
L 335.421116 212.285106 
L 343.329599 209.604255 
L 352.08542 206.923404 
L 360.558796 190.838298 
L 369.314617 185.476596 
L 377.787992 185.476596 
L 386.543813 182.795745 
L 395.299634 180.114894 
L 403.773009 174.753191 
L 412.52883 172.07234 
L 421.002205 161.348936 
L 429.758026 158.668085 
L 438.513847 147.944681 
L 446.422331 142.582979 
L 455.178152 142.582979 
L 463.651527 131.859574 
L 472.407348 129.178723 
L 480.880723 129.178723 
L 489.636544 113.093617 
L 498.392365 110.412766 
L 506.86574 102.370213 
L 515.621561 99.689362 
L 524.094936 91.646809 
L 532.850757 91.646809 
L 541.606579 88.965957 
L 549.797508 86.285106 
L 558.553329 78.242553 
L 567.026704 75.561702 
L 575.782525 72.880851 
L 584.2559 70.2 
L 593.011721 70.2 
L 601.767542 70.2 
L 610.240917 70.2 
L 618.996738 70.2 
L 627.470114 70.2 
" clip-path="url(#pa2a34f67f9)" style="fill: none; stroke: #1a1a1a; stroke-width: 2; stroke-linecap: square"/>
    <defs>
     <path id="m4d6529a8d4" d="M 0 3 
C 0.795609 3 1.55874 2.683901 2.12132 2.12132 
C 2.683901 1.55874 3 0.795609 3 0 
C 3 -0.795609 2.683901 -1.55874 2.12132 -2.12132 
C 1.55874 -2.683901 0.795609 -3 0 -3 
C -0.795609 -3 -1.55874 -2.683901 -2.12132 -2.12132 
C -2.683901 -1.55874 -3 -0.795609 -3 0 
C -3 0.795609 -2.683901 1.55874 -2.12132 2.12132 
C -1.55874 2.683901 -0.795609 3 0 3 
z
" style="stroke: #000000; stroke-opacity: 0; stroke-width: 0.75"/>
    </defs>
    <g clip-path="url(#pa2a34f67f9)">
     <use xlink:href="#m4d6529a8d4" x="120.197386" y="322.2" style="fill: #1a1a1a; stroke: #000000; stroke-opacity: 0; stroke-width: 0.75"/>
     <use xlink:href="#m4d6529a8d4" x="128.953207" y="322.2" style="fill: #1a1a1a; stroke: #000000; stroke-opacity: 0; stroke-width: 0.75"/>
     <use xlink:href="#m4d6529a8d4" x="137.144137" y="322.2" style="fill: #1a1a1a; stroke: #000000; stroke-opacity: 0; stroke-width: 0.75"/>
     <use xlink:href="#m4d6529a8d4" x="145.899958" y="284.668085" style="fill: #1a1a1a; stroke: #000000; stroke-opacity: 0; stroke-width: 0.75"/>
     <use xlink:href="#m4d6529a8d4" x="154.373333" y="281.987234" style="fill: #1a1a1a; stroke: #000000; stroke-opacity: 0; stroke-width: 0.75"/>
     <use xlink:href="#m4d6529a8d4" x="163.129154" y="281.987234" style="fill: #1a1a1a; stroke: #000000; stroke-opacity: 0; stroke-width: 0.75"/>
     <use xlink:href="#m4d6529a8d4" x="171.602529" y="279.306383" style="fill: #1a1a1a; stroke: #000000; stroke-opacity: 0; stroke-width: 0.75"/>
     <use xlink:href="#m4d6529a8d4" x="180.35835" y="276.625532" style="fill: #1a1a1a; stroke: #000000; stroke-opacity: 0; stroke-width: 0.75"/>
     <use xlink:href="#m4d6529a8d4" x="189.114171" y="268.582979" style="fill: #1a1a1a; stroke: #000000; stroke-opacity: 0; stroke-width: 0.75"/>
     <use xlink:href="#m4d6529a8d4" x="197.587546" y="268.582979" style="fill: #1a1a1a; stroke: #000000; stroke-opacity: 0; stroke-width: 0.75"/>
     <use xlink:href="#m4d6529a8d4" x="206.343367" y="268.582979" style="fill: #1a1a1a; stroke: #000000; stroke-opacity: 0; stroke-width: 0.75"/>
     <use xlink:href="#m4d6529a8d4" x="214.816743" y="268.582979" style="fill: #1a1a1a; stroke: #000000; stroke-opacity: 0; stroke-width: 0.75"/>
     <use xlink:href="#m4d6529a8d4" x="223.572564" y="268.582979" style="fill: #1a1a1a; stroke: #000000; stroke-opacity: 0; stroke-width: 0.75"/>
     <use xlink:href="#m4d6529a8d4" x="232.328385" y="263.221277" style="fill: #1a1a1a; stroke: #000000; stroke-opacity: 0; stroke-width: 0.75"/>
     <use xlink:href="#m4d6529a8d4" x="240.236868" y="263.221277" style="fill: #1a1a1a; stroke: #000000; stroke-opacity: 0; stroke-width: 0.75"/>
     <use xlink:href="#m4d6529a8d4" x="248.992689" y="263.221277" style="fill: #1a1a1a; stroke: #000000; stroke-opacity: 0; stroke-width: 0.75"/>
     <use xlink:href="#m4d6529a8d4" x="257.466064" y="263.221277" style="fill: #1a1a1a; stroke: #000000; stroke-opacity: 0; stroke-width: 0.75"/>
     <use xlink:href="#m4d6529a8d4" x="266.221885" y="257.859574" style="fill: #1a1a1a; stroke: #000000; stroke-opacity: 0; stroke-width: 0.75"/>
     <use xlink:href="#m4d6529a8d4" x="274.69526" y="257.859574" style="fill: #1a1a1a; stroke: #000000; stroke-opacity: 0; stroke-width: 0.75"/>
     <use xlink:href="#m4d6529a8d4" x="283.451081" y="255.178723" style="fill: #1a1a1a; stroke: #000000; stroke-opacity: 0; stroke-width: 0.75"/>
     <use xlink:href="#m4d6529a8d4" x="292.206902" y="239.093617" style="fill: #1a1a1a; stroke: #000000; stroke-opacity: 0; stroke-width: 0.75"/>
     <use xlink:href="#m4d6529a8d4" x="300.680278" y="239.093617" style="fill: #1a1a1a; stroke: #000000; stroke-opacity: 0; stroke-width: 0.75"/>
     <use xlink:href="#m4d6529a8d4" x="309.436099" y="236.412766" style="fill: #1a1a1a; stroke: #000000; stroke-opacity: 0; stroke-width: 0.75"/>
     <use xlink:href="#m4d6529a8d4" x="317.909474" y="231.051064" style="fill: #1a1a1a; stroke: #000000; stroke-opacity: 0; stroke-width: 0.75"/>
     <use xlink:href="#m4d6529a8d4" x="326.665295" y="220.32766" style="fill: #1a1a1a; stroke: #000000; stroke-opacity: 0; stroke-width: 0.75"/>
     <use xlink:href="#m4d6529a8d4" x="335.421116" y="212.285106" style="fill: #1a1a1a; stroke: #000000; stroke-opacity: 0; stroke-width: 0.75"/>
     <use xlink:href="#m4d6529a8d4" x="343.329599" y="209.604255" style="fill: #1a1a1a; stroke: #000000; stroke-opacity: 0; stroke-width: 0.75"/>
     <use xlink:href="#m4d6529a8d4" x="352.08542" y="206.923404" style="fill: #1a1a1a; stroke: #000000; stroke-opacity: 0; stroke-width: 0.75"/>
     <use xlink:href="#m4d6529a8d4" x="360.558796" y="190.838298" style="fill: #1a1a1a; stroke: #000000; stroke-opacity: 0; stroke-width: 0.75"/>
     <use xlink:href="#m4d6529a8d4" x="369.314617" y="185.476596" style="fill: #1a1a1a; stroke: #000000; stroke-opacity: 0; stroke-width: 0.75"/>
     <use xlink:href="#m4d6529a8d4" x="377.787992" y="185.476596" style="fill: #1a1a1a; stroke: #000000; stroke-opacity: 0; stroke-width: 0.75"/>
     <use xlink:href="#m4d6529a8d4" x="386.543813" y="182.795745" style="fill: #1a1a1a; stroke: #000000; stroke-opacity: 0; stroke-width: 0.75"/>
     <use xlink:href="#m4d6529a8d4" x="395.299634" y="180.114894" style="fill: #1a1a1a; stroke: #000000; stroke-opacity: 0; stroke-width: 0.75"/>
     <use xlink:href="#m4d6529a8d4" x="403.773009" y="174.753191" style="fill: #1a1a1a; stroke: #000000; stroke-opacity: 0; stroke-width: 0.75"/>
     <use xlink:href="#m4d6529a8d4" x="412.52883" y="172.07234" style="fill: #1a1a1a; stroke: #000000; stroke-opacity: 0; stroke-width: 0.75"/>
     <use xlink:href="#m4d6529a8d4" x="421.002205" y="161.348936" style="fill: #1a1a1a; stroke: #000000; stroke-opacity: 0; stroke-width: 0.75"/>
     <use xlink:href="#m4d6529a8d4" x="429.758026" y="158.668085" style="fill: #1a1a1a; stroke: #000000; stroke-opacity: 0; stroke-width: 0.75"/>
     <use xlink:href="#m4d6529a8d4" x="438.513847" y="147.944681" style="fill: #1a1a1a; stroke: #000000; stroke-opacity: 0; stroke-width: 0.75"/>
     <use xlink:href="#m4d6529a8d4" x="446.422331" y="142.582979" style="fill: #1a1a1a; stroke: #000000; stroke-opacity: 0; stroke-width: 0.75"/>
     <use xlink:href="#m4d6529a8d4" x="455.178152" y="142.582979" style="fill: #1a1a1a; stroke: #000000; stroke-opacity: 0; stroke-width: 0.75"/>
     <use xlink:href="#m4d6529a8d4" x="463.651527" y="131.859574" style="fill: #1a1a1a; stroke: #000000; stroke-opacity: 0; stroke-width: 0.75"/>
     <use xlink:href="#m4d6529a8d4" x="472.407348" y="129.178723" style="fill: #1a1a1a; stroke: #000000; stroke-opacity: 0; stroke-width: 0.75"/>
     <use xlink:href="#m4d6529a8d4" x="480.880723" y="129.178723" style="fill: #1a1a1a; stroke: #000000; stroke-opacity: 0; stroke-width: 0.75"/>
     <use xlink:href="#m4d6529a8d4" x="489.636544" y="113.093617" style="fill: #1a1a1a; stroke: #000000; stroke-opacity: 0; stroke-width: 0.75"/>
     <use xlink:href="#m4d6529a8d4" x="498.392365" y="110.412766" style="fill: #1a1a1a; stroke: #000000; stroke-opacity: 0; stroke-width: 0.75"/>
     <use xlink:href="#m4d6529a8d4" x="506.86574" y="102.370213" style="fill: #1a1a1a; stroke: #000000; stroke-opacity: 0; stroke-width: 0.75"/>
     <use xlink:href="#m4d6529a8d4" x="515.621561" y="99.689362" style="fill: #1a1a1a; stroke: #000000; stroke-opacity: 0; stroke-width: 0.75"/>
     <use xlink:href="#m4d6529a8d4" x="524.094936" y="91.646809" style="fill: #1a1a1a; stroke: #000000; stroke-opacity: 0; stroke-width: 0.75"/>
     <use xlink:href="#m4d6529a8d4" x="532.850757" y="91.646809" style="fill: #1a1a1a; stroke: #000000; stroke-opacity: 0; stroke-width: 0.75"/>
     <use xlink:href="#m4d6529a8d4" x="541.606579" y="88.965957" style="fill: #1a1a1a; stroke: #000000; stroke-opacity: 0; stroke-width: 0.75"/>
     <use xlink:href="#m4d6529a8d4" x="549.797508" y="86.285106" style="fill: #1a1a1a; stroke: #000000; stroke-opacity: 0; stroke-width: 0.75"/>
     <use xlink:href="#m4d6529a8d4" x="558.553329" y="78.242553" style="fill: #1a1a1a; stroke: #000000; stroke-opacity: 0; stroke-width: 0.75"/>
     <use xlink:href="#m4d6529a8d4" x="567.026704" y="75.561702" style="fill: #1a1a1a; stroke: #000000; stroke-opacity: 0; stroke-width: 0.75"/>
     <use xlink:href="#m4d6529a8d4" x="575.782525" y="72.880851" style="fill: #1a1a1a; stroke: #000000; stroke-opacity: 0; stroke-width: 0.75"/>
     <use xlink:href="#m4d6529a8d4" x="584.2559" y="70.2" style="fill: #1a1a1a; stroke: #000000; stroke-opacity: 0; stroke-width: 0.75"/>
     <use xlink:href="#m4d6529a8d4" x="593.011721" y="70.2" style="fill: #1a1a1a; stroke: #000000; stroke-opacity: 0; stroke-width: 0.75"/>
     <use xlink:href="#m4d6529a8d4" x="601.767542" y="70.2" style="fill: #1a1a1a; stroke: #000000; stroke-opacity: 0; stroke-width: 0.75"/>
     <use xlink:href="#m4d6529a8d4" x="610.240917" y="70.2" style="fill: #1a1a1a; stroke: #000000; stroke-opacity: 0; stroke-width: 0.75"/>
     <use xlink:href="#m4d6529a8d4" x="618.996738" y="70.2" style="fill: #1a1a1a; stroke: #000000; stroke-opacity: 0; stroke-width: 0.75"/>
     <use xlink:href="#m4d6529a8d4" x="627.470114" y="70.2" style="fill: #1a1a1a; stroke: #000000; stroke-opacity: 0; stroke-width: 0.75"/>
    </g>
   </g>
   <g id="patch_3">
    <path d="M 84.83375 322.2 
L 84.83375 107.731915 
" style="fill: none; stroke: #000000; stroke-width: 1.5; stroke-linejoin: miter; stroke-linecap: square"/>
   </g>
   <g id="patch_4">
    <path d="M 119.927312 344.8 
L 635.95586 344.8 
" style="fill: none; stroke: #000000; stroke-width: 1.5; stroke-linejoin: miter; stroke-linecap: square"/>
   </g>
   <g id="text_19">
    <!-- Cumulative unique affiliations throughout the years -->
    <g transform="translate(138.172812 51.6) scale(0.2 -0.2)">
     <defs>
      <path id="FiraSans-Regular-43" d="M 2182 4486 
Q 2579 4486 2851 4384 
Q 3123 4282 3405 4051 
L 3072 3661 
Q 2669 3987 2221 3987 
Q 1670 3987 1334 3564 
Q 998 3142 998 2208 
Q 998 1299 1331 867 
Q 1664 435 2214 435 
Q 2496 435 2701 531 
Q 2906 627 3149 806 
L 3456 416 
Q 3258 205 2934 64 
Q 2611 -77 2195 -77 
Q 1658 -77 1238 188 
Q 819 454 585 969 
Q 352 1485 352 2208 
Q 352 2931 595 3446 
Q 838 3962 1254 4224 
Q 1670 4486 2182 4486 
z
" transform="scale(0.015625)"/>
      <path id="FiraSans-Regular-6d" d="M 3994 3450 
Q 4410 3450 4659 3171 
Q 4909 2893 4909 2419 
L 4909 0 
L 4320 0 
L 4320 2336 
Q 4320 2989 3846 2989 
Q 3597 2989 3424 2845 
Q 3251 2701 3053 2394 
L 3053 0 
L 2464 0 
L 2464 2336 
Q 2464 2989 1990 2989 
Q 1734 2989 1561 2841 
Q 1389 2694 1197 2394 
L 1197 0 
L 608 0 
L 608 3373 
L 1114 3373 
L 1165 2880 
Q 1542 3450 2138 3450 
Q 2451 3450 2672 3290 
Q 2893 3130 2989 2842 
Q 3187 3136 3427 3293 
Q 3667 3450 3994 3450 
z
" transform="scale(0.015625)"/>
      <path id="FiraSans-Regular-76" d="M 1939 0 
L 1229 0 
L 64 3373 
L 704 3373 
L 1587 525 
L 2464 3373 
L 3085 3373 
L 1939 0 
z
" transform="scale(0.015625)"/>
      <path id="FiraSans-Regular-68" d="M 2195 3450 
Q 2656 3450 2915 3174 
Q 3174 2899 3174 2419 
L 3174 0 
L 2586 0 
L 2586 2336 
Q 2586 2694 2448 2841 
Q 2310 2989 2048 2989 
Q 1786 2989 1581 2835 
Q 1376 2682 1197 2400 
L 1197 0 
L 608 0 
L 608 4723 
L 1197 4787 
L 1197 2906 
Q 1594 3450 2195 3450 
z
" transform="scale(0.015625)"/>
      <path id="FiraSans-Regular-67" d="M 3328 3219 
Q 3136 3155 2905 3136 
Q 2675 3117 2342 3117 
Q 2938 2848 2938 2266 
Q 2938 1760 2592 1440 
Q 2246 1120 1651 1120 
Q 1421 1120 1222 1184 
Q 1146 1133 1101 1046 
Q 1056 960 1056 870 
Q 1056 595 1498 595 
L 2035 595 
Q 2374 595 2636 473 
Q 2899 352 3043 141 
Q 3187 -70 3187 -339 
Q 3187 -832 2784 -1097 
Q 2381 -1363 1606 -1363 
Q 1062 -1363 745 -1251 
Q 429 -1139 294 -915 
Q 160 -691 160 -339 
L 691 -339 
Q 691 -544 768 -662 
Q 845 -781 1043 -841 
Q 1242 -902 1606 -902 
Q 2138 -902 2365 -771 
Q 2592 -640 2592 -378 
Q 2592 -141 2413 -19 
Q 2234 102 1914 102 
L 1382 102 
Q 954 102 733 284 
Q 512 467 512 742 
Q 512 909 608 1062 
Q 704 1216 883 1338 
Q 589 1491 451 1718 
Q 314 1946 314 2272 
Q 314 2611 483 2880 
Q 653 3149 950 3299 
Q 1248 3450 1613 3450 
Q 2010 3443 2278 3478 
Q 2547 3514 2723 3574 
Q 2899 3635 3155 3750 
L 3328 3219 
z
M 1613 3027 
Q 1280 3027 1097 2819 
Q 915 2611 915 2272 
Q 915 1926 1100 1718 
Q 1286 1510 1626 1510 
Q 1971 1510 2153 1712 
Q 2336 1914 2336 2278 
Q 2336 3027 1613 3027 
z
" transform="scale(0.015625)"/>
      <path id="FiraSans-Regular-79" d="M 1958 -19 
Q 1760 -608 1405 -950 
Q 1050 -1293 390 -1363 
L 326 -902 
Q 659 -845 857 -736 
Q 1056 -627 1174 -457 
Q 1293 -288 1395 0 
L 1197 0 
L 64 3373 
L 691 3373 
L 1594 429 
L 2477 3373 
L 3085 3373 
L 1958 -19 
z
" transform="scale(0.015625)"/>
     </defs>
     <use xlink:href="#FiraSans-Regular-43"/>
     <use xlink:href="#FiraSans-Regular-75" x="55.999985"/>
     <use xlink:href="#FiraSans-Regular-6d" x="114.199982"/>
     <use xlink:href="#FiraSans-Regular-75" x="199.899963"/>
     <use xlink:href="#FiraSans-Regular-6c" x="258.09996"/>
     <use xlink:href="#FiraSans-Regular-61" x="287.399948"/>
     <use xlink:href="#FiraSans-Regular-74" x="341.799942"/>
     <use xlink:href="#FiraSans-Regular-69" x="377.899933"/>
     <use xlink:href="#FiraSans-Regular-76" x="406.09993"/>
     <use xlink:href="#FiraSans-Regular-65" x="455.299927"/>
     <use xlink:href="#FiraSans-Regular-20" x="510.299911"/>
     <use xlink:href="#FiraSans-Regular-75" x="536.799896"/>
     <use xlink:href="#FiraSans-Regular-6e" x="594.999893"/>
     <use xlink:href="#FiraSans-Regular-69" x="653.599884"/>
     <use xlink:href="#FiraSans-Regular-71" x="681.799881"/>
     <use xlink:href="#FiraSans-Regular-75" x="741.099869"/>
     <use xlink:href="#FiraSans-Regular-65" x="799.299866"/>
     <use xlink:href="#FiraSans-Regular-20" x="854.29985"/>
     <use xlink:href="#FiraSans-Regular-61" x="880.799835"/>
     <use xlink:href="#FiraSans-Regular-66" x="935.199829"/>
     <use xlink:href="#FiraSans-Regular-66" x="968.699814"/>
     <use xlink:href="#FiraSans-Regular-69" x="1002.199799"/>
     <use xlink:href="#FiraSans-Regular-6c" x="1030.399796"/>
     <use xlink:href="#FiraSans-Regular-69" x="1059.699783"/>
     <use xlink:href="#FiraSans-Regular-61" x="1087.89978"/>
     <use xlink:href="#FiraSans-Regular-74" x="1142.299774"/>
     <use xlink:href="#FiraSans-Regular-69" x="1178.399765"/>
     <use xlink:href="#FiraSans-Regular-6f" x="1206.599762"/>
     <use xlink:href="#FiraSans-Regular-6e" x="1264.999756"/>
     <use xlink:href="#FiraSans-Regular-73" x="1323.599747"/>
     <use xlink:href="#FiraSans-Regular-20" x="1370.299744"/>
     <use xlink:href="#FiraSans-Regular-74" x="1396.799728"/>
     <use xlink:href="#FiraSans-Regular-68" x="1432.899719"/>
     <use xlink:href="#FiraSans-Regular-72" x="1491.49971"/>
     <use xlink:href="#FiraSans-Regular-6f" x="1530.099701"/>
     <use xlink:href="#FiraSans-Regular-75" x="1588.499695"/>
     <use xlink:href="#FiraSans-Regular-67" x="1646.699692"/>
     <use xlink:href="#FiraSans-Regular-68" x="1698.699677"/>
     <use xlink:href="#FiraSans-Regular-6f" x="1757.299667"/>
     <use xlink:href="#FiraSans-Regular-75" x="1815.699661"/>
     <use xlink:href="#FiraSans-Regular-74" x="1873.899658"/>
     <use xlink:href="#FiraSans-Regular-20" x="1909.999649"/>
     <use xlink:href="#FiraSans-Regular-74" x="1936.499634"/>
     <use xlink:href="#FiraSans-Regular-68" x="1972.599625"/>
     <use xlink:href="#FiraSans-Regular-65" x="2031.199615"/>
     <use xlink:href="#FiraSans-Regular-20" x="2086.1996"/>
     <use xlink:href="#FiraSans-Regular-79" x="2112.699585"/>
     <use xlink:href="#FiraSans-Regular-65" x="2161.899582"/>
     <use xlink:href="#FiraSans-Regular-61" x="2216.899567"/>
     <use xlink:href="#FiraSans-Regular-72" x="2271.299561"/>
     <use xlink:href="#FiraSans-Regular-73" x="2309.899551"/>
    </g>
   </g>
  </g>
 </g>
 <defs>
  <clipPath id="pa2a34f67f9">
   <rect x="94.83375" y="57.6" width="558" height="277.2"/>
  </clipPath>
 </defs>
</svg>
