<?xml version="1.0" encoding="utf-8" standalone="no"?>
<!DOCTYPE svg PUBLIC "-//W3C//DTD SVG 1.1//EN"
  "http://www.w3.org/Graphics/SVG/1.1/DTD/svg11.dtd">
<svg xmlns:xlink="http://www.w3.org/1999/xlink" width="582.596875pt" height="494.393125pt" viewBox="0 0 582.596875 494.393125" xmlns="http://www.w3.org/2000/svg" version="1.1">
 <metadata>
  <rdf:RDF xmlns:dc="http://purl.org/dc/elements/1.1/" xmlns:cc="http://creativecommons.org/ns#" xmlns:rdf="http://www.w3.org/1999/02/22-rdf-syntax-ns#">
   <cc:Work>
    <dc:type rdf:resource="http://purl.org/dc/dcmitype/StillImage"/>
    <dc:date>2024-09-24T17:16:14.810770</dc:date>
    <dc:format>image/svg+xml</dc:format>
    <dc:creator>
     <cc:Agent>
      <dc:title>Matplotlib v3.8.3, https://matplotlib.org/</dc:title>
     </cc:Agent>
    </dc:creator>
   </cc:Work>
  </rdf:RDF>
 </metadata>
 <defs>
  <style type="text/css">*{stroke-linejoin: round; stroke-linecap: butt}</style>
 </defs>
 <g id="figure_1">
  <g id="patch_1">
   <path d="M 0 494.393125 
L 582.596875 494.393125 
L 582.596875 0 
L 0 0 
z
" style="fill: #ffffff"/>
  </g>
  <g id="axes_1">
   <g id="patch_2">
    <path d="M 92.836875 401.01625 
L 546.596875 401.01625 
L 546.596875 57 
L 92.836875 57 
z
" style="fill: #ffffff"/>
   </g>
   <g id="matplotlib.axis_1">
    <g id="xtick_1">
     <g id="line2d_1">
      <defs>
       <path id="mb79796a0cb" d="M 0 0 
L 0 3.5 
" style="stroke: #000000; stroke-width: 2"/>
      </defs>
      <g>
       <use xlink:href="#mb79796a0cb" x="141.671875" y="411.01625" style="stroke: #000000; stroke-width: 2"/>
      </g>
     </g>
     <g id="text_1">
      <!-- single (1) -->
      <g transform="translate(105.275313 433.22625) scale(0.18 -0.18)">
       <defs>
        <path id="FiraSans-Regular-73" d="M 1523 3450 
Q 1869 3450 2144 3354 
Q 2419 3258 2669 3066 
L 2419 2694 
Q 2189 2842 1981 2912 
Q 1773 2982 1542 2982 
Q 1254 2982 1088 2864 
Q 922 2746 922 2541 
Q 922 2336 1078 2221 
Q 1235 2106 1645 1997 
Q 2208 1856 2486 1613 
Q 2765 1370 2765 947 
Q 2765 448 2377 185 
Q 1990 -77 1434 -77 
Q 666 -77 160 365 
L 474 723 
Q 902 397 1421 397 
Q 1754 397 1949 534 
Q 2144 672 2144 909 
Q 2144 1082 2073 1187 
Q 2003 1293 1830 1373 
Q 1658 1453 1325 1542 
Q 787 1683 547 1920 
Q 307 2157 307 2522 
Q 307 2784 464 2998 
Q 621 3213 899 3331 
Q 1178 3450 1523 3450 
z
" transform="scale(0.015625)"/>
        <path id="FiraSans-Regular-69" d="M 1197 0 
L 608 0 
L 608 3373 
L 1197 3373 
L 1197 0 
z
M 896 4992 
Q 1082 4992 1197 4877 
Q 1312 4762 1312 4589 
Q 1312 4416 1197 4304 
Q 1082 4192 896 4192 
Q 717 4192 601 4304 
Q 486 4416 486 4589 
Q 486 4762 601 4877 
Q 717 4992 896 4992 
z
" transform="scale(0.015625)"/>
        <path id="FiraSans-Regular-6e" d="M 2195 3450 
Q 2656 3450 2915 3174 
Q 3174 2899 3174 2419 
L 3174 0 
L 2586 0 
L 2586 2336 
Q 2586 2694 2451 2841 
Q 2317 2989 2054 2989 
Q 1786 2989 1581 2835 
Q 1376 2682 1197 2394 
L 1197 0 
L 608 0 
L 608 3373 
L 1114 3373 
L 1165 2874 
Q 1344 3142 1609 3296 
Q 1875 3450 2195 3450 
z
" transform="scale(0.015625)"/>
        <path id="FiraSans-Regular-67" d="M 3328 3219 
Q 3136 3155 2905 3136 
Q 2675 3117 2342 3117 
Q 2938 2848 2938 2266 
Q 2938 1760 2592 1440 
Q 2246 1120 1651 1120 
Q 1421 1120 1222 1184 
Q 1146 1133 1101 1046 
Q 1056 960 1056 870 
Q 1056 595 1498 595 
L 2035 595 
Q 2374 595 2636 473 
Q 2899 352 3043 141 
Q 3187 -70 3187 -339 
Q 3187 -832 2784 -1097 
Q 2381 -1363 1606 -1363 
Q 1062 -1363 745 -1251 
Q 429 -1139 294 -915 
Q 160 -691 160 -339 
L 691 -339 
Q 691 -544 768 -662 
Q 845 -781 1043 -841 
Q 1242 -902 1606 -902 
Q 2138 -902 2365 -771 
Q 2592 -640 2592 -378 
Q 2592 -141 2413 -19 
Q 2234 102 1914 102 
L 1382 102 
Q 954 102 733 284 
Q 512 467 512 742 
Q 512 909 608 1062 
Q 704 1216 883 1338 
Q 589 1491 451 1718 
Q 314 1946 314 2272 
Q 314 2611 483 2880 
Q 653 3149 950 3299 
Q 1248 3450 1613 3450 
Q 2010 3443 2278 3478 
Q 2547 3514 2723 3574 
Q 2899 3635 3155 3750 
L 3328 3219 
z
M 1613 3027 
Q 1280 3027 1097 2819 
Q 915 2611 915 2272 
Q 915 1926 1100 1718 
Q 1286 1510 1626 1510 
Q 1971 1510 2153 1712 
Q 2336 1914 2336 2278 
Q 2336 3027 1613 3027 
z
" transform="scale(0.015625)"/>
        <path id="FiraSans-Regular-6c" d="M 1280 -77 
Q 954 -77 765 118 
Q 576 314 576 666 
L 576 4730 
L 1165 4800 
L 1165 678 
Q 1165 538 1213 474 
Q 1261 410 1376 410 
Q 1498 410 1594 448 
L 1747 38 
Q 1536 -77 1280 -77 
z
" transform="scale(0.015625)"/>
        <path id="FiraSans-Regular-65" d="M 3155 1786 
Q 3155 1638 3142 1485 
L 992 1485 
Q 1030 928 1273 665 
Q 1517 403 1901 403 
Q 2144 403 2349 473 
Q 2554 544 2778 698 
L 3034 346 
Q 2496 -77 1856 -77 
Q 1152 -77 758 384 
Q 365 845 365 1651 
Q 365 2176 534 2582 
Q 704 2989 1021 3219 
Q 1338 3450 1766 3450 
Q 2438 3450 2796 3008 
Q 3155 2566 3155 1786 
z
M 2573 1958 
Q 2573 2458 2374 2720 
Q 2176 2982 1779 2982 
Q 1056 2982 992 1920 
L 2573 1920 
L 2573 1958 
z
" transform="scale(0.015625)"/>
        <path id="FiraSans-Regular-20" transform="scale(0.015625)"/>
        <path id="FiraSans-Regular-28" d="M 1818 5152 
Q 1485 4659 1289 4272 
Q 1094 3885 982 3392 
Q 870 2899 870 2240 
Q 870 1587 982 1094 
Q 1094 602 1289 208 
Q 1485 -186 1818 -672 
L 1446 -928 
Q 1024 -326 797 61 
Q 570 448 413 989 
Q 256 1530 256 2240 
Q 256 2950 413 3491 
Q 570 4032 797 4419 
Q 1024 4806 1446 5408 
L 1818 5152 
z
" transform="scale(0.015625)"/>
        <path id="FiraSans-Regular-31" d="M 2067 0 
L 1478 0 
L 1478 3654 
L 480 3046 
L 224 3462 
L 1549 4282 
L 2067 4282 
L 2067 0 
z
" transform="scale(0.015625)"/>
        <path id="FiraSans-Regular-29" d="M 627 5408 
Q 1050 4806 1277 4419 
Q 1504 4032 1661 3491 
Q 1818 2950 1818 2240 
Q 1818 1530 1661 989 
Q 1504 448 1277 61 
Q 1050 -326 627 -928 
L 256 -672 
Q 589 -186 784 208 
Q 979 602 1091 1094 
Q 1203 1587 1203 2240 
Q 1203 2899 1091 3392 
Q 979 3885 784 4272 
Q 589 4659 256 5152 
L 627 5408 
z
" transform="scale(0.015625)"/>
       </defs>
       <use xlink:href="#FiraSans-Regular-73"/>
       <use xlink:href="#FiraSans-Regular-69" x="46.699997"/>
       <use xlink:href="#FiraSans-Regular-6e" x="74.899994"/>
       <use xlink:href="#FiraSans-Regular-67" x="133.499985"/>
       <use xlink:href="#FiraSans-Regular-6c" x="185.499969"/>
       <use xlink:href="#FiraSans-Regular-65" x="214.799957"/>
       <use xlink:href="#FiraSans-Regular-20" x="269.799942"/>
       <use xlink:href="#FiraSans-Regular-28" x="296.299927"/>
       <use xlink:href="#FiraSans-Regular-31" x="328.699921"/>
       <use xlink:href="#FiraSans-Regular-29" x="371.999908"/>
      </g>
     </g>
    </g>
    <g id="xtick_2">
     <g id="line2d_2">
      <g>
       <use xlink:href="#mb79796a0cb" x="323.470406" y="411.01625" style="stroke: #000000; stroke-width: 2"/>
      </g>
     </g>
     <g id="text_2">
      <!-- medium (2-5) -->
      <g transform="translate(269.127281 432.002812) scale(0.18 -0.18)">
       <defs>
        <path id="FiraSans-Regular-6d" d="M 3994 3450 
Q 4410 3450 4659 3171 
Q 4909 2893 4909 2419 
L 4909 0 
L 4320 0 
L 4320 2336 
Q 4320 2989 3846 2989 
Q 3597 2989 3424 2845 
Q 3251 2701 3053 2394 
L 3053 0 
L 2464 0 
L 2464 2336 
Q 2464 2989 1990 2989 
Q 1734 2989 1561 2841 
Q 1389 2694 1197 2394 
L 1197 0 
L 608 0 
L 608 3373 
L 1114 3373 
L 1165 2880 
Q 1542 3450 2138 3450 
Q 2451 3450 2672 3290 
Q 2893 3130 2989 2842 
Q 3187 3136 3427 3293 
Q 3667 3450 3994 3450 
z
" transform="scale(0.015625)"/>
        <path id="FiraSans-Regular-64" d="M 3219 4730 
L 3219 0 
L 2701 0 
L 2643 467 
Q 2477 211 2227 67 
Q 1978 -77 1670 -77 
Q 1069 -77 733 396 
Q 397 870 397 1670 
Q 397 2189 557 2592 
Q 717 2995 1017 3222 
Q 1318 3450 1722 3450 
Q 2240 3450 2630 3034 
L 2630 4800 
L 3219 4730 
z
M 1798 390 
Q 2067 390 2259 515 
Q 2451 640 2630 890 
L 2630 2541 
Q 2464 2758 2275 2870 
Q 2086 2982 1850 2982 
Q 1459 2982 1244 2656 
Q 1030 2330 1030 1683 
Q 1030 1030 1228 710 
Q 1427 390 1798 390 
z
" transform="scale(0.015625)"/>
        <path id="FiraSans-Regular-75" d="M 3117 0 
L 2611 0 
L 2566 525 
Q 2374 211 2124 67 
Q 1875 -77 1517 -77 
Q 1075 -77 825 192 
Q 576 461 576 954 
L 576 3373 
L 1165 3373 
L 1165 1018 
Q 1165 672 1286 528 
Q 1408 384 1683 384 
Q 2176 384 2528 966 
L 2528 3373 
L 3117 3373 
L 3117 0 
z
" transform="scale(0.015625)"/>
        <path id="FiraSans-Regular-32" d="M 1459 4346 
Q 1843 4346 2134 4192 
Q 2426 4038 2586 3772 
Q 2746 3507 2746 3174 
Q 2746 2784 2570 2425 
Q 2394 2067 2029 1651 
Q 1664 1235 922 493 
L 2848 493 
L 2778 0 
L 250 0 
L 250 467 
Q 1107 1357 1465 1769 
Q 1824 2182 1977 2489 
Q 2131 2797 2131 3149 
Q 2131 3482 1939 3670 
Q 1747 3859 1427 3859 
Q 1165 3859 966 3750 
Q 768 3642 557 3392 
L 160 3699 
Q 422 4026 742 4186 
Q 1062 4346 1459 4346 
z
" transform="scale(0.015625)"/>
        <path id="FiraSans-Regular-2d" d="M 384 2253 
L 2195 2253 
L 2195 1754 
L 384 1754 
L 384 2253 
z
" transform="scale(0.015625)"/>
        <path id="FiraSans-Regular-35" d="M 2688 3821 
L 1018 3821 
L 1018 2560 
Q 1344 2726 1702 2726 
Q 2253 2726 2585 2364 
Q 2918 2003 2918 1370 
Q 2918 947 2732 617 
Q 2547 288 2211 105 
Q 1875 -77 1434 -77 
Q 1043 -77 736 60 
Q 429 198 166 467 
L 525 813 
Q 717 602 934 502 
Q 1152 403 1427 403 
Q 1837 403 2070 659 
Q 2304 915 2304 1382 
Q 2304 1850 2093 2061 
Q 1882 2272 1523 2272 
Q 1357 2272 1216 2237 
Q 1075 2202 915 2125 
L 454 2125 
L 454 4282 
L 2771 4282 
L 2688 3821 
z
" transform="scale(0.015625)"/>
       </defs>
       <use xlink:href="#FiraSans-Regular-6d"/>
       <use xlink:href="#FiraSans-Regular-65" x="85.699982"/>
       <use xlink:href="#FiraSans-Regular-64" x="140.699966"/>
       <use xlink:href="#FiraSans-Regular-69" x="200.499954"/>
       <use xlink:href="#FiraSans-Regular-75" x="228.699951"/>
       <use xlink:href="#FiraSans-Regular-6d" x="286.899948"/>
       <use xlink:href="#FiraSans-Regular-20" x="372.59993"/>
       <use xlink:href="#FiraSans-Regular-28" x="399.099915"/>
       <use xlink:href="#FiraSans-Regular-32" x="431.499908"/>
       <use xlink:href="#FiraSans-Regular-2d" x="480.999893"/>
       <use xlink:href="#FiraSans-Regular-35" x="521.299881"/>
       <use xlink:href="#FiraSans-Regular-29" x="571.399872"/>
      </g>
     </g>
    </g>
    <g id="xtick_3">
     <g id="line2d_3">
      <g>
       <use xlink:href="#mb79796a0cb" x="505.268937" y="411.01625" style="stroke: #000000; stroke-width: 2"/>
      </g>
     </g>
     <g id="text_3">
      <!-- large (&gt; 5) -->
      <g transform="translate(465.020656 433.22625) scale(0.18 -0.18)">
       <defs>
        <path id="FiraSans-Regular-61" d="M 2880 787 
Q 2880 582 2950 483 
Q 3021 384 3162 333 
L 3027 -77 
Q 2765 -45 2605 70 
Q 2445 186 2368 429 
Q 2029 -77 1363 -77 
Q 864 -77 576 204 
Q 288 486 288 941 
Q 288 1478 675 1766 
Q 1062 2054 1773 2054 
L 2291 2054 
L 2291 2304 
Q 2291 2662 2118 2816 
Q 1946 2970 1587 2970 
Q 1216 2970 678 2790 
L 531 3219 
Q 1158 3450 1696 3450 
Q 2291 3450 2585 3158 
Q 2880 2867 2880 2330 
L 2880 787 
z
M 1498 365 
Q 2003 365 2291 890 
L 2291 1664 
L 1850 1664 
Q 915 1664 915 973 
Q 915 672 1062 518 
Q 1210 365 1498 365 
z
" transform="scale(0.015625)"/>
        <path id="FiraSans-Regular-72" d="M 2074 3450 
Q 2253 3450 2406 3411 
L 2298 2835 
Q 2144 2874 2003 2874 
Q 1690 2874 1498 2643 
Q 1306 2413 1197 1926 
L 1197 0 
L 608 0 
L 608 3373 
L 1114 3373 
L 1171 2688 
Q 1306 3066 1536 3258 
Q 1766 3450 2074 3450 
z
" transform="scale(0.015625)"/>
        <path id="FiraSans-Regular-3e" d="M 2880 2432 
L 2880 1830 
L 531 736 
L 320 1210 
L 2413 2131 
L 320 3040 
L 531 3526 
L 2880 2432 
z
" transform="scale(0.015625)"/>
       </defs>
       <use xlink:href="#FiraSans-Regular-6c"/>
       <use xlink:href="#FiraSans-Regular-61" x="29.299988"/>
       <use xlink:href="#FiraSans-Regular-72" x="83.699982"/>
       <use xlink:href="#FiraSans-Regular-67" x="122.299973"/>
       <use xlink:href="#FiraSans-Regular-65" x="174.299957"/>
       <use xlink:href="#FiraSans-Regular-20" x="229.299942"/>
       <use xlink:href="#FiraSans-Regular-28" x="255.799927"/>
       <use xlink:href="#FiraSans-Regular-3e" x="288.199921"/>
       <use xlink:href="#FiraSans-Regular-20" x="338.199905"/>
       <use xlink:href="#FiraSans-Regular-35" x="364.69989"/>
       <use xlink:href="#FiraSans-Regular-29" x="414.799881"/>
      </g>
     </g>
    </g>
    <g id="text_4">
     <!-- Contributor size -->
     <g transform="translate(254.313594 454.559687) scale(0.18 -0.18)">
      <defs>
       <path id="FiraSans-Regular-43" d="M 2182 4486 
Q 2579 4486 2851 4384 
Q 3123 4282 3405 4051 
L 3072 3661 
Q 2669 3987 2221 3987 
Q 1670 3987 1334 3564 
Q 998 3142 998 2208 
Q 998 1299 1331 867 
Q 1664 435 2214 435 
Q 2496 435 2701 531 
Q 2906 627 3149 806 
L 3456 416 
Q 3258 205 2934 64 
Q 2611 -77 2195 -77 
Q 1658 -77 1238 188 
Q 819 454 585 969 
Q 352 1485 352 2208 
Q 352 2931 595 3446 
Q 838 3962 1254 4224 
Q 1670 4486 2182 4486 
z
" transform="scale(0.015625)"/>
       <path id="FiraSans-Regular-6f" d="M 1875 3450 
Q 2586 3450 2979 2976 
Q 3373 2502 3373 1690 
Q 3373 1165 3193 765 
Q 3014 365 2675 144 
Q 2336 -77 1869 -77 
Q 1158 -77 761 396 
Q 365 870 365 1683 
Q 365 2208 544 2608 
Q 723 3008 1062 3229 
Q 1402 3450 1875 3450 
z
M 1875 2976 
Q 998 2976 998 1683 
Q 998 397 1869 397 
Q 2739 397 2739 1690 
Q 2739 2976 1875 2976 
z
" transform="scale(0.015625)"/>
       <path id="FiraSans-Regular-74" d="M 2310 154 
Q 1978 -77 1555 -77 
Q 1126 -77 886 169 
Q 646 416 646 883 
L 646 2918 
L 58 2918 
L 58 3373 
L 646 3373 
L 646 4134 
L 1235 4205 
L 1235 3373 
L 2035 3373 
L 1971 2918 
L 1235 2918 
L 1235 909 
Q 1235 646 1328 528 
Q 1421 410 1638 410 
Q 1850 410 2086 557 
L 2310 154 
z
" transform="scale(0.015625)"/>
       <path id="FiraSans-Regular-62" d="M 2150 3450 
Q 2726 3450 3065 2986 
Q 3405 2522 3405 1690 
Q 3405 1165 3245 765 
Q 3085 365 2784 144 
Q 2483 -77 2080 -77 
Q 1549 -77 1184 371 
L 1126 0 
L 608 0 
L 608 4730 
L 1197 4800 
L 1197 2950 
Q 1562 3450 2150 3450 
z
M 1939 390 
Q 2330 390 2550 707 
Q 2771 1024 2771 1690 
Q 2771 2374 2566 2678 
Q 2362 2982 1984 2982 
Q 1536 2982 1197 2458 
L 1197 845 
Q 1331 634 1526 512 
Q 1722 390 1939 390 
z
" transform="scale(0.015625)"/>
       <path id="FiraSans-Regular-7a" d="M 2586 2925 
L 826 493 
L 2605 493 
L 2534 0 
L 160 0 
L 160 442 
L 1914 2874 
L 307 2874 
L 307 3373 
L 2586 3373 
L 2586 2925 
z
" transform="scale(0.015625)"/>
      </defs>
      <use xlink:href="#FiraSans-Regular-43"/>
      <use xlink:href="#FiraSans-Regular-6f" x="55.999985"/>
      <use xlink:href="#FiraSans-Regular-6e" x="114.399979"/>
      <use xlink:href="#FiraSans-Regular-74" x="172.999969"/>
      <use xlink:href="#FiraSans-Regular-72" x="209.09996"/>
      <use xlink:href="#FiraSans-Regular-69" x="247.699951"/>
      <use xlink:href="#FiraSans-Regular-62" x="275.899948"/>
      <use xlink:href="#FiraSans-Regular-75" x="335.299942"/>
      <use xlink:href="#FiraSans-Regular-74" x="393.499939"/>
      <use xlink:href="#FiraSans-Regular-6f" x="429.59993"/>
      <use xlink:href="#FiraSans-Regular-72" x="487.999924"/>
      <use xlink:href="#FiraSans-Regular-20" x="526.599915"/>
      <use xlink:href="#FiraSans-Regular-73" x="553.099899"/>
      <use xlink:href="#FiraSans-Regular-69" x="599.799896"/>
      <use xlink:href="#FiraSans-Regular-7a" x="627.999893"/>
      <use xlink:href="#FiraSans-Regular-65" x="671.69989"/>
     </g>
    </g>
   </g>
   <g id="matplotlib.axis_2">
    <g id="ytick_1">
     <g id="line2d_4">
      <defs>
       <path id="md67e02a7e5" d="M 0 0 
L -3.5 0 
" style="stroke: #000000; stroke-width: 2"/>
      </defs>
      <g>
       <use xlink:href="#md67e02a7e5" x="82.836875" y="401.01625" style="stroke: #000000; stroke-width: 2"/>
      </g>
     </g>
     <g id="text_5">
      <!-- 0 -->
      <g transform="translate(65.793438 407.76625) scale(0.18 -0.18)">
       <defs>
        <path id="FiraSans-Regular-30" d="M 1786 4346 
Q 2496 4346 2857 3779 
Q 3219 3213 3219 2138 
Q 3219 1062 2857 492 
Q 2496 -77 1786 -77 
Q 1075 -77 713 492 
Q 352 1062 352 2138 
Q 352 3213 713 3779 
Q 1075 4346 1786 4346 
z
M 1786 3878 
Q 1370 3878 1168 3468 
Q 966 3059 966 2138 
Q 966 1216 1168 803 
Q 1370 390 1786 390 
Q 2195 390 2400 803 
Q 2605 1216 2605 2138 
Q 2605 3053 2400 3465 
Q 2195 3878 1786 3878 
z
" transform="scale(0.015625)"/>
       </defs>
       <use xlink:href="#FiraSans-Regular-30"/>
      </g>
     </g>
    </g>
    <g id="ytick_2">
     <g id="line2d_5">
      <g>
       <use xlink:href="#md67e02a7e5" x="82.836875" y="362.792222" style="stroke: #000000; stroke-width: 2"/>
      </g>
     </g>
     <g id="text_6">
      <!-- 2 -->
      <g transform="translate(66.926875 369.542222) scale(0.18 -0.18)">
       <use xlink:href="#FiraSans-Regular-32"/>
      </g>
     </g>
    </g>
    <g id="ytick_3">
     <g id="line2d_6">
      <g>
       <use xlink:href="#md67e02a7e5" x="82.836875" y="324.568194" style="stroke: #000000; stroke-width: 2"/>
      </g>
     </g>
     <g id="text_7">
      <!-- 4 -->
      <g transform="translate(66.260313 331.318194) scale(0.18 -0.18)">
       <defs>
        <path id="FiraSans-Regular-34" d="M 3213 1056 
L 2656 1056 
L 2656 0 
L 2086 0 
L 2086 1056 
L 256 1056 
L 256 1478 
L 1542 4346 
L 2035 4141 
L 877 1523 
L 2093 1523 
L 2144 2675 
L 2656 2675 
L 2656 1523 
L 3213 1523 
L 3213 1056 
z
" transform="scale(0.015625)"/>
       </defs>
       <use xlink:href="#FiraSans-Regular-34"/>
      </g>
     </g>
    </g>
    <g id="ytick_4">
     <g id="line2d_7">
      <g>
       <use xlink:href="#md67e02a7e5" x="82.836875" y="286.344167" style="stroke: #000000; stroke-width: 2"/>
      </g>
     </g>
     <g id="text_8">
      <!-- 6 -->
      <g transform="translate(66.243437 293.094167) scale(0.18 -0.18)">
       <defs>
        <path id="FiraSans-Regular-36" d="M 1971 2816 
Q 2298 2816 2566 2662 
Q 2835 2509 2995 2201 
Q 3155 1894 3155 1453 
Q 3155 998 2972 649 
Q 2790 301 2480 112 
Q 2170 -77 1792 -77 
Q 1043 -77 697 476 
Q 352 1030 352 2010 
Q 352 2707 547 3235 
Q 742 3763 1107 4054 
Q 1472 4346 1971 4346 
Q 2458 4346 2854 4083 
L 2624 3693 
Q 2323 3878 1965 3878 
Q 1504 3878 1235 3436 
Q 966 2995 941 2253 
Q 1338 2816 1971 2816 
z
M 1792 390 
Q 2163 390 2361 672 
Q 2560 954 2560 1434 
Q 2560 2349 1869 2349 
Q 1587 2349 1350 2192 
Q 1114 2035 947 1760 
Q 966 1056 1168 723 
Q 1370 390 1792 390 
z
" transform="scale(0.015625)"/>
       </defs>
       <use xlink:href="#FiraSans-Regular-36"/>
      </g>
     </g>
    </g>
    <g id="ytick_5">
     <g id="line2d_8">
      <g>
       <use xlink:href="#md67e02a7e5" x="82.836875" y="248.120139" style="stroke: #000000; stroke-width: 2"/>
      </g>
     </g>
     <g id="text_9">
      <!-- 8 -->
      <g transform="translate(65.92 254.870139) scale(0.18 -0.18)">
       <defs>
        <path id="FiraSans-Regular-38" d="M 2336 2298 
Q 3238 1933 3238 1146 
Q 3238 794 3049 515 
Q 2861 237 2521 80 
Q 2182 -77 1754 -77 
Q 1318 -77 985 76 
Q 653 230 470 505 
Q 288 781 288 1133 
Q 288 1530 502 1798 
Q 717 2067 1133 2246 
Q 794 2419 630 2665 
Q 467 2912 467 3245 
Q 467 3590 649 3840 
Q 832 4090 1129 4218 
Q 1427 4346 1766 4346 
Q 2099 4346 2396 4224 
Q 2694 4102 2880 3856 
Q 3066 3610 3066 3264 
Q 3066 2944 2886 2713 
Q 2707 2483 2336 2298 
z
M 1766 3904 
Q 1434 3904 1238 3731 
Q 1043 3558 1043 3238 
Q 1043 2931 1232 2771 
Q 1421 2611 1837 2477 
L 1946 2438 
Q 2234 2605 2362 2790 
Q 2490 2976 2490 3245 
Q 2490 3546 2301 3725 
Q 2112 3904 1766 3904 
z
M 1760 390 
Q 2157 390 2390 595 
Q 2624 800 2624 1139 
Q 2624 1370 2534 1526 
Q 2445 1683 2246 1801 
Q 2048 1920 1690 2042 
L 1530 2099 
Q 1210 1946 1056 1712 
Q 902 1478 902 1133 
Q 902 781 1132 585 
Q 1363 390 1760 390 
z
" transform="scale(0.015625)"/>
       </defs>
       <use xlink:href="#FiraSans-Regular-38"/>
      </g>
     </g>
    </g>
    <g id="ytick_6">
     <g id="line2d_9">
      <g>
       <use xlink:href="#md67e02a7e5" x="82.836875" y="209.896111" style="stroke: #000000; stroke-width: 2"/>
      </g>
     </g>
     <g id="text_10">
      <!-- 10 -->
      <g transform="translate(58 216.646111) scale(0.18 -0.18)">
       <use xlink:href="#FiraSans-Regular-31"/>
       <use xlink:href="#FiraSans-Regular-30" x="43.299988"/>
      </g>
     </g>
    </g>
    <g id="ytick_7">
     <g id="line2d_10">
      <g>
       <use xlink:href="#md67e02a7e5" x="82.836875" y="171.672083" style="stroke: #000000; stroke-width: 2"/>
      </g>
     </g>
     <g id="text_11">
      <!-- 12 -->
      <g transform="translate(59.133438 178.422083) scale(0.18 -0.18)">
       <use xlink:href="#FiraSans-Regular-31"/>
       <use xlink:href="#FiraSans-Regular-32" x="43.299988"/>
      </g>
     </g>
    </g>
    <g id="ytick_8">
     <g id="line2d_11">
      <g>
       <use xlink:href="#md67e02a7e5" x="82.836875" y="133.448056" style="stroke: #000000; stroke-width: 2"/>
      </g>
     </g>
     <g id="text_12">
      <!-- 14 -->
      <g transform="translate(58.466875 140.198056) scale(0.18 -0.18)">
       <use xlink:href="#FiraSans-Regular-31"/>
       <use xlink:href="#FiraSans-Regular-34" x="43.299988"/>
      </g>
     </g>
    </g>
    <g id="ytick_9">
     <g id="line2d_12">
      <g>
       <use xlink:href="#md67e02a7e5" x="82.836875" y="95.224028" style="stroke: #000000; stroke-width: 2"/>
      </g>
     </g>
     <g id="text_13">
      <!-- 16 -->
      <g transform="translate(58.45 101.974028) scale(0.18 -0.18)">
       <use xlink:href="#FiraSans-Regular-31"/>
       <use xlink:href="#FiraSans-Regular-36" x="43.299988"/>
      </g>
     </g>
    </g>
    <g id="ytick_10">
     <g id="line2d_13">
      <g>
       <use xlink:href="#md67e02a7e5" x="82.836875" y="57" style="stroke: #000000; stroke-width: 2"/>
      </g>
     </g>
     <g id="text_14">
      <!-- 18 -->
      <g transform="translate(58.126563 63.75) scale(0.18 -0.18)">
       <use xlink:href="#FiraSans-Regular-31"/>
       <use xlink:href="#FiraSans-Regular-38" x="43.299988"/>
      </g>
     </g>
    </g>
    <g id="text_15">
     <!-- log$_{10}$ of dataset size -->
     <g transform="translate(50.04 311.808125) rotate(-90) scale(0.18 -0.18)">
      <defs>
       <path id="DejaVuSans-31" d="M 794 531 
L 1825 531 
L 1825 4091 
L 703 3866 
L 703 4441 
L 1819 4666 
L 2450 4666 
L 2450 531 
L 3481 531 
L 3481 0 
L 794 0 
L 794 531 
z
" transform="scale(0.015625)"/>
       <path id="DejaVuSans-30" d="M 2034 4250 
Q 1547 4250 1301 3770 
Q 1056 3291 1056 2328 
Q 1056 1369 1301 889 
Q 1547 409 2034 409 
Q 2525 409 2770 889 
Q 3016 1369 3016 2328 
Q 3016 3291 2770 3770 
Q 2525 4250 2034 4250 
z
M 2034 4750 
Q 2819 4750 3233 4129 
Q 3647 3509 3647 2328 
Q 3647 1150 3233 529 
Q 2819 -91 2034 -91 
Q 1250 -91 836 529 
Q 422 1150 422 2328 
Q 422 3509 836 4129 
Q 1250 4750 2034 4750 
z
" transform="scale(0.015625)"/>
       <path id="FiraSans-Regular-66" d="M 1754 4326 
Q 1485 4326 1369 4208 
Q 1254 4090 1254 3840 
L 1254 3373 
L 2074 3373 
L 2010 2918 
L 1254 2918 
L 1254 0 
L 666 0 
L 666 2918 
L 64 2918 
L 64 3373 
L 666 3373 
L 666 3834 
Q 666 4269 944 4534 
Q 1222 4800 1722 4800 
Q 1952 4800 2134 4758 
Q 2317 4717 2528 4627 
L 2342 4198 
Q 2054 4326 1754 4326 
z
" transform="scale(0.015625)"/>
      </defs>
      <use xlink:href="#FiraSans-Regular-6c"/>
      <use xlink:href="#FiraSans-Regular-6f" transform="translate(29.299988 0)"/>
      <use xlink:href="#FiraSans-Regular-67" transform="translate(87.699982 0)"/>
      <use xlink:href="#DejaVuSans-31" transform="translate(140.656998 -16.40625) scale(0.7)"/>
      <use xlink:href="#DejaVuSans-30" transform="translate(185.19313 -16.40625) scale(0.7)"/>
      <use xlink:href="#FiraSans-Regular-20" transform="translate(232.463638 0)"/>
      <use xlink:href="#FiraSans-Regular-6f" transform="translate(258.963623 0)"/>
      <use xlink:href="#FiraSans-Regular-66" transform="translate(317.363617 0)"/>
      <use xlink:href="#FiraSans-Regular-20" transform="translate(350.863602 0)"/>
      <use xlink:href="#FiraSans-Regular-64" transform="translate(377.363586 0)"/>
      <use xlink:href="#FiraSans-Regular-61" transform="translate(437.163574 0)"/>
      <use xlink:href="#FiraSans-Regular-74" transform="translate(491.563568 0)"/>
      <use xlink:href="#FiraSans-Regular-61" transform="translate(527.663559 0)"/>
      <use xlink:href="#FiraSans-Regular-73" transform="translate(582.063553 0)"/>
      <use xlink:href="#FiraSans-Regular-65" transform="translate(628.76355 0)"/>
      <use xlink:href="#FiraSans-Regular-74" transform="translate(683.763535 0)"/>
      <use xlink:href="#FiraSans-Regular-20" transform="translate(719.863525 0)"/>
      <use xlink:href="#FiraSans-Regular-73" transform="translate(746.36351 0)"/>
      <use xlink:href="#FiraSans-Regular-69" transform="translate(793.063507 0)"/>
      <use xlink:href="#FiraSans-Regular-7a" transform="translate(821.263504 0)"/>
      <use xlink:href="#FiraSans-Regular-65" transform="translate(864.963501 0)"/>
     </g>
    </g>
   </g>
   <g id="line2d_14">
    <path d="M 141.671875 121.795739 
L 141.671875 115.776628 
L 323.470406 115.776628 
L 323.470406 121.795739 
" clip-path="url(#p20b9397457)" style="fill: none; stroke: #000000; stroke-width: 1.5; stroke-linecap: square"/>
   </g>
   <g id="line2d_15">
    <path d="M 323.470406 101.732036 
L 323.470406 95.712925 
L 505.268937 95.712925 
L 505.268937 101.732036 
" clip-path="url(#p20b9397457)" style="fill: none; stroke: #000000; stroke-width: 1.5; stroke-linecap: square"/>
   </g>
   <g id="line2d_16">
    <path d="M 141.671875 81.668333 
L 141.671875 75.649222 
L 505.268937 75.649222 
L 505.268937 81.668333 
" clip-path="url(#p20b9397457)" style="fill: none; stroke: #000000; stroke-width: 1.5; stroke-linecap: square"/>
   </g>
   <g id="patch_3">
    <path d="M 82.836875 401.01625 
L 82.836875 57 
" style="fill: none; stroke: #000000; stroke-width: 1.5; stroke-linejoin: miter; stroke-linecap: square"/>
   </g>
   <g id="patch_4">
    <path d="M 141.671875 411.01625 
L 505.268937 411.01625 
" style="fill: none; stroke: #000000; stroke-width: 1.5; stroke-linejoin: miter; stroke-linecap: square"/>
   </g>
   <g id="PathCollection_1">
    <defs>
     <path id="C0_0_cda9160ecb" d="M 0 4.031129 
C 1.069068 4.031129 2.094493 3.606384 2.850439 2.850439 
C 3.606384 2.094493 4.031129 1.069068 4.031129 -0 
C 4.031129 -1.069068 3.606384 -2.094493 2.850439 -2.850439 
C 2.094493 -3.606384 1.069068 -4.031129 0 -4.031129 
C -1.069068 -4.031129 -2.094493 -3.606384 -2.850439 -2.850439 
C -3.606384 -2.094493 -4.031129 -1.069068 -4.031129 0 
C -4.031129 1.069068 -3.606384 2.094493 -2.850439 2.850439 
C -2.094493 3.606384 -1.069068 4.031129 0 4.031129 
z
"/>
    </defs>
    <g clip-path="url(#p20b9397457)">
     <use xlink:href="#C0_0_cda9160ecb" x="126.441244" y="187.881956" style="fill: #c6dbef"/>
    </g>
    <g clip-path="url(#p20b9397457)">
     <use xlink:href="#C0_0_cda9160ecb" x="141.671875" y="264.640493" style="fill: #c6dbef"/>
    </g>
    <g clip-path="url(#p20b9397457)">
     <use xlink:href="#C0_0_cda9160ecb" x="141.671875" y="319.332019" style="fill: #c6dbef"/>
    </g>
    <g clip-path="url(#p20b9397457)">
     <use xlink:href="#C0_0_cda9160ecb" x="156.122234" y="190.964929" style="fill: #c6dbef"/>
    </g>
    <g clip-path="url(#p20b9397457)">
     <use xlink:href="#C0_0_cda9160ecb" x="126.906267" y="294.767869" style="fill: #c6dbef"/>
    </g>
    <g clip-path="url(#p20b9397457)">
     <use xlink:href="#C0_0_cda9160ecb" x="141.671875" y="255.873204" style="fill: #c6dbef"/>
    </g>
    <g clip-path="url(#p20b9397457)">
     <use xlink:href="#C0_0_cda9160ecb" x="119.38054" y="245.17736" style="fill: #c6dbef"/>
    </g>
    <g clip-path="url(#p20b9397457)">
     <use xlink:href="#C0_0_cda9160ecb" x="149.87722" y="253.890325" style="fill: #c6dbef"/>
    </g>
    <g clip-path="url(#p20b9397457)">
     <use xlink:href="#C0_0_cda9160ecb" x="141.671875" y="300.983375" style="fill: #c6dbef"/>
    </g>
    <g clip-path="url(#p20b9397457)">
     <use xlink:href="#C0_0_cda9160ecb" x="116.638503" y="201.713585" style="fill: #c6dbef"/>
    </g>
    <g clip-path="url(#p20b9397457)">
     <use xlink:href="#C0_0_cda9160ecb" x="133.374892" y="233.400771" style="fill: #c6dbef"/>
    </g>
    <g clip-path="url(#p20b9397457)">
     <use xlink:href="#C0_0_cda9160ecb" x="141.671875" y="165.998694" style="fill: #c6dbef"/>
    </g>
    <g clip-path="url(#p20b9397457)">
     <use xlink:href="#C0_0_cda9160ecb" x="148.045454" y="193.379571" style="fill: #c6dbef"/>
    </g>
    <g clip-path="url(#p20b9397457)">
     <use xlink:href="#C0_0_cda9160ecb" x="144.708581" y="227.475144" style="fill: #c6dbef"/>
    </g>
    <g clip-path="url(#p20b9397457)">
     <use xlink:href="#C0_0_cda9160ecb" x="150.068803" y="216.668018" style="fill: #c6dbef"/>
    </g>
    <g clip-path="url(#p20b9397457)">
     <use xlink:href="#C0_0_cda9160ecb" x="126.333525" y="214.394387" style="fill: #c6dbef"/>
    </g>
    <g clip-path="url(#p20b9397457)">
     <use xlink:href="#C0_0_cda9160ecb" x="150.136967" y="165.933263" style="fill: #c6dbef"/>
    </g>
    <g clip-path="url(#p20b9397457)">
     <use xlink:href="#C0_0_cda9160ecb" x="100.096247" y="198.534781" style="fill: #c6dbef"/>
    </g>
    <g clip-path="url(#p20b9397457)">
     <use xlink:href="#C0_0_cda9160ecb" x="108.232387" y="200.761342" style="fill: #c6dbef"/>
    </g>
    <g clip-path="url(#p20b9397457)">
     <use xlink:href="#C0_0_cda9160ecb" x="125.66655" y="171.123618" style="fill: #c6dbef"/>
    </g>
    <g clip-path="url(#p20b9397457)">
     <use xlink:href="#C0_0_cda9160ecb" x="164.786836" y="165.377189" style="fill: #c6dbef"/>
    </g>
    <g clip-path="url(#p20b9397457)">
     <use xlink:href="#C0_0_cda9160ecb" x="109.178782" y="228.605231" style="fill: #c6dbef"/>
    </g>
    <g clip-path="url(#p20b9397457)">
     <use xlink:href="#C0_0_cda9160ecb" x="150.555428" y="174.111966" style="fill: #c6dbef"/>
    </g>
    <g clip-path="url(#p20b9397457)">
     <use xlink:href="#C0_0_cda9160ecb" x="158.180086" y="298.454957" style="fill: #c6dbef"/>
    </g>
    <g clip-path="url(#p20b9397457)">
     <use xlink:href="#C0_0_cda9160ecb" x="175.082884" y="200.865484" style="fill: #c6dbef"/>
    </g>
    <g clip-path="url(#p20b9397457)">
     <use xlink:href="#C0_0_cda9160ecb" x="174.496924" y="228.379217" style="fill: #c6dbef"/>
    </g>
    <g clip-path="url(#p20b9397457)">
     <use xlink:href="#C0_0_cda9160ecb" x="136.509974" y="225.467144" style="fill: #c6dbef"/>
    </g>
    <g clip-path="url(#p20b9397457)">
     <use xlink:href="#C0_0_cda9160ecb" x="166.693582" y="231.504762" style="fill: #c6dbef"/>
    </g>
    <g clip-path="url(#p20b9397457)">
     <use xlink:href="#C0_0_cda9160ecb" x="142.099685" y="174.496377" style="fill: #c6dbef"/>
    </g>
    <g clip-path="url(#p20b9397457)">
     <use xlink:href="#C0_0_cda9160ecb" x="125.100154" y="201.952571" style="fill: #c6dbef"/>
    </g>
    <g clip-path="url(#p20b9397457)">
     <use xlink:href="#C0_0_cda9160ecb" x="129.435791" y="179.330467" style="fill: #c6dbef"/>
    </g>
    <g clip-path="url(#p20b9397457)">
     <use xlink:href="#C0_0_cda9160ecb" x="156.848109" y="249.315999" style="fill: #c6dbef"/>
    </g>
    <g clip-path="url(#p20b9397457)">
     <use xlink:href="#C0_0_cda9160ecb" x="134.02612" y="217.759741" style="fill: #c6dbef"/>
    </g>
    <g clip-path="url(#p20b9397457)">
     <use xlink:href="#C0_0_cda9160ecb" x="133.764546" y="163.119942" style="fill: #c6dbef"/>
    </g>
    <g clip-path="url(#p20b9397457)">
     <use xlink:href="#C0_0_cda9160ecb" x="149.714726" y="298.468107" style="fill: #c6dbef"/>
    </g>
    <g clip-path="url(#p20b9397457)">
     <use xlink:href="#C0_0_cda9160ecb" x="183.404265" y="199.384807" style="fill: #c6dbef"/>
    </g>
    <g clip-path="url(#p20b9397457)">
     <use xlink:href="#C0_0_cda9160ecb" x="142.113337" y="219.423852" style="fill: #c6dbef"/>
    </g>
    <g clip-path="url(#p20b9397457)">
     <use xlink:href="#C0_0_cda9160ecb" x="125.584824" y="260.18666" style="fill: #c6dbef"/>
    </g>
    <g clip-path="url(#p20b9397457)">
     <use xlink:href="#C0_0_cda9160ecb" x="157.843609" y="213.478623" style="fill: #c6dbef"/>
    </g>
    <g clip-path="url(#p20b9397457)">
     <use xlink:href="#C0_0_cda9160ecb" x="157.666283" y="169.737412" style="fill: #c6dbef"/>
    </g>
    <g clip-path="url(#p20b9397457)">
     <use xlink:href="#C0_0_cda9160ecb" x="141.671875" y="246.058195" style="fill: #c6dbef"/>
    </g>
    <g clip-path="url(#p20b9397457)">
     <use xlink:href="#C0_0_cda9160ecb" x="149.596944" y="270.861716" style="fill: #c6dbef"/>
    </g>
    <g clip-path="url(#p20b9397457)">
     <use xlink:href="#C0_0_cda9160ecb" x="126.181315" y="249.978339" style="fill: #c6dbef"/>
    </g>
    <g clip-path="url(#p20b9397457)">
     <use xlink:href="#C0_0_cda9160ecb" x="141.671875" y="204.747665" style="fill: #c6dbef"/>
    </g>
    <g clip-path="url(#p20b9397457)">
     <use xlink:href="#C0_0_cda9160ecb" x="133.291448" y="272.556621" style="fill: #c6dbef"/>
    </g>
    <g clip-path="url(#p20b9397457)">
     <use xlink:href="#C0_0_cda9160ecb" x="141.671875" y="235.000817" style="fill: #c6dbef"/>
    </g>
    <g clip-path="url(#p20b9397457)">
     <use xlink:href="#C0_0_cda9160ecb" x="133.257712" y="300.09794" style="fill: #c6dbef"/>
    </g>
    <g clip-path="url(#p20b9397457)">
     <use xlink:href="#C0_0_cda9160ecb" x="118.25882" y="211.973458" style="fill: #c6dbef"/>
    </g>
    <g clip-path="url(#p20b9397457)">
     <use xlink:href="#C0_0_cda9160ecb" x="133.224891" y="204.216584" style="fill: #c6dbef"/>
    </g>
    <g clip-path="url(#p20b9397457)">
     <use xlink:href="#C0_0_cda9160ecb" x="91.634336" y="198.304315" style="fill: #c6dbef"/>
    </g>
    <g clip-path="url(#p20b9397457)">
     <use xlink:href="#C0_0_cda9160ecb" x="158.347392" y="202.776395" style="fill: #c6dbef"/>
    </g>
    <g clip-path="url(#p20b9397457)">
     <use xlink:href="#C0_0_cda9160ecb" x="141.177442" y="188.666208" style="fill: #c6dbef"/>
    </g>
    <g clip-path="url(#p20b9397457)">
     <use xlink:href="#C0_0_cda9160ecb" x="124.931543" y="232.819607" style="fill: #c6dbef"/>
    </g>
    <g clip-path="url(#p20b9397457)">
     <use xlink:href="#C0_0_cda9160ecb" x="137.632682" y="181.34481" style="fill: #c6dbef"/>
    </g>
    <g clip-path="url(#p20b9397457)">
     <use xlink:href="#C0_0_cda9160ecb" x="128.166432" y="224.104272" style="fill: #c6dbef"/>
    </g>
    <g clip-path="url(#p20b9397457)">
     <use xlink:href="#C0_0_cda9160ecb" x="163.848471" y="187.670219" style="fill: #c6dbef"/>
    </g>
    <g clip-path="url(#p20b9397457)">
     <use xlink:href="#C0_0_cda9160ecb" x="149.7461" y="262.218111" style="fill: #c6dbef"/>
    </g>
    <g clip-path="url(#p20b9397457)">
     <use xlink:href="#C0_0_cda9160ecb" x="191.712535" y="197.838793" style="fill: #c6dbef"/>
    </g>
    <g clip-path="url(#p20b9397457)">
     <use xlink:href="#C0_0_cda9160ecb" x="160.599464" y="222.703265" style="fill: #c6dbef"/>
    </g>
    <g clip-path="url(#p20b9397457)">
     <use xlink:href="#C0_0_cda9160ecb" x="117.643319" y="228.718361" style="fill: #c6dbef"/>
    </g>
    <g clip-path="url(#p20b9397457)">
     <use xlink:href="#C0_0_cda9160ecb" x="165.520588" y="257.647473" style="fill: #c6dbef"/>
    </g>
    <g clip-path="url(#p20b9397457)">
     <use xlink:href="#C0_0_cda9160ecb" x="156.374753" y="160.482804" style="fill: #c6dbef"/>
    </g>
    <g clip-path="url(#p20b9397457)">
     <use xlink:href="#C0_0_cda9160ecb" x="110.306115" y="165.14087" style="fill: #c6dbef"/>
    </g>
    <g clip-path="url(#p20b9397457)">
     <use xlink:href="#C0_0_cda9160ecb" x="140.370492" y="196.781245" style="fill: #c6dbef"/>
    </g>
    <g clip-path="url(#p20b9397457)">
     <use xlink:href="#C0_0_cda9160ecb" x="134.337346" y="242.032521" style="fill: #c6dbef"/>
    </g>
    <g clip-path="url(#p20b9397457)">
     <use xlink:href="#C0_0_cda9160ecb" x="141.671875" y="137.351289" style="fill: #c6dbef"/>
    </g>
    <g clip-path="url(#p20b9397457)">
     <use xlink:href="#C0_0_cda9160ecb" x="117.351656" y="169.610254" style="fill: #c6dbef"/>
    </g>
    <g clip-path="url(#p20b9397457)">
     <use xlink:href="#C0_0_cda9160ecb" x="150.137243" y="204.741153" style="fill: #c6dbef"/>
    </g>
    <g clip-path="url(#p20b9397457)">
     <use xlink:href="#C0_0_cda9160ecb" x="148.736771" y="185.037269" style="fill: #c6dbef"/>
    </g>
    <g clip-path="url(#p20b9397457)">
     <use xlink:href="#C0_0_cda9160ecb" x="134.095374" y="171.871967" style="fill: #c6dbef"/>
    </g>
    <g clip-path="url(#p20b9397457)">
     <use xlink:href="#C0_0_cda9160ecb" x="132.763938" y="193.242942" style="fill: #c6dbef"/>
    </g>
    <g clip-path="url(#p20b9397457)">
     <use xlink:href="#C0_0_cda9160ecb" x="141.671875" y="273.695876" style="fill: #c6dbef"/>
    </g>
    <g clip-path="url(#p20b9397457)">
     <use xlink:href="#C0_0_cda9160ecb" x="158.192904" y="261.684439" style="fill: #c6dbef"/>
    </g>
    <g clip-path="url(#p20b9397457)">
     <use xlink:href="#C0_0_cda9160ecb" x="166.620141" y="201.066312" style="fill: #c6dbef"/>
    </g>
    <g clip-path="url(#p20b9397457)">
     <use xlink:href="#C0_0_cda9160ecb" x="149.802915" y="244.846121" style="fill: #c6dbef"/>
    </g>
    <g clip-path="url(#p20b9397457)">
     <use xlink:href="#C0_0_cda9160ecb" x="134.463696" y="251.645591" style="fill: #c6dbef"/>
    </g>
    <g clip-path="url(#p20b9397457)">
     <use xlink:href="#C0_0_cda9160ecb" x="153.105714" y="226.453544" style="fill: #c6dbef"/>
    </g>
    <g clip-path="url(#p20b9397457)">
     <use xlink:href="#C0_0_cda9160ecb" x="150.13534" y="234.829753" style="fill: #c6dbef"/>
    </g>
    <g clip-path="url(#p20b9397457)">
     <use xlink:href="#C0_0_cda9160ecb" x="158.359308" y="232.918135" style="fill: #c6dbef"/>
    </g>
    <g clip-path="url(#p20b9397457)">
     <use xlink:href="#C0_0_cda9160ecb" x="133.286841" y="263.53241" style="fill: #c6dbef"/>
    </g>
   </g>
   <g id="PathCollection_2">
    <defs>
     <path id="C1_0_ae9dcc7aef" d="M 0 4.031129 
C 1.069068 4.031129 2.094493 3.606384 2.850439 2.850439 
C 3.606384 2.094493 4.031129 1.069068 4.031129 -0 
C 4.031129 -1.069068 3.606384 -2.094493 2.850439 -2.850439 
C 2.094493 -3.606384 1.069068 -4.031129 0 -4.031129 
C -1.069068 -4.031129 -2.094493 -3.606384 -2.850439 -2.850439 
C -3.606384 -2.094493 -4.031129 -1.069068 -4.031129 0 
C -4.031129 1.069068 -3.606384 2.094493 -2.850439 2.850439 
C -2.094493 3.606384 -1.069068 4.031129 0 4.031129 
z
"/>
    </defs>
    <g clip-path="url(#p20b9397457)">
     <use xlink:href="#C1_0_ae9dcc7aef" x="303.231435" y="163.872234" style="fill: #6aaed6"/>
    </g>
    <g clip-path="url(#p20b9397457)">
     <use xlink:href="#C1_0_ae9dcc7aef" x="325.461067" y="197.15105" style="fill: #6aaed6"/>
    </g>
    <g clip-path="url(#p20b9397457)">
     <use xlink:href="#C1_0_ae9dcc7aef" x="299.071699" y="245.351057" style="fill: #6aaed6"/>
    </g>
    <g clip-path="url(#p20b9397457)">
     <use xlink:href="#C1_0_ae9dcc7aef" x="372.939595" y="198.388169" style="fill: #6aaed6"/>
    </g>
    <g clip-path="url(#p20b9397457)">
     <use xlink:href="#C1_0_ae9dcc7aef" x="293.695306" y="200.129523" style="fill: #6aaed6"/>
    </g>
    <g clip-path="url(#p20b9397457)">
     <use xlink:href="#C1_0_ae9dcc7aef" x="355.96268" y="234.971134" style="fill: #6aaed6"/>
    </g>
    <g clip-path="url(#p20b9397457)">
     <use xlink:href="#C1_0_ae9dcc7aef" x="259.116948" y="208.802187" style="fill: #6aaed6"/>
    </g>
    <g clip-path="url(#p20b9397457)">
     <use xlink:href="#C1_0_ae9dcc7aef" x="250.750994" y="205.414145" style="fill: #6aaed6"/>
    </g>
    <g clip-path="url(#p20b9397457)">
     <use xlink:href="#C1_0_ae9dcc7aef" x="380.454062" y="194.675679" style="fill: #6aaed6"/>
    </g>
    <g clip-path="url(#p20b9397457)">
     <use xlink:href="#C1_0_ae9dcc7aef" x="358.438121" y="206.708178" style="fill: #6aaed6"/>
    </g>
    <g clip-path="url(#p20b9397457)">
     <use xlink:href="#C1_0_ae9dcc7aef" x="267.079828" y="195.658343" style="fill: #6aaed6"/>
    </g>
    <g clip-path="url(#p20b9397457)">
     <use xlink:href="#C1_0_ae9dcc7aef" x="250.750994" y="208.109578" style="fill: #6aaed6"/>
    </g>
    <g clip-path="url(#p20b9397457)">
     <use xlink:href="#C1_0_ae9dcc7aef" x="366.421287" y="193.244064" style="fill: #6aaed6"/>
    </g>
    <g clip-path="url(#p20b9397457)">
     <use xlink:href="#C1_0_ae9dcc7aef" x="278.761596" y="192.660001" style="fill: #6aaed6"/>
    </g>
    <g clip-path="url(#p20b9397457)">
     <use xlink:href="#C1_0_ae9dcc7aef" x="342.016044" y="164.116687" style="fill: #6aaed6"/>
    </g>
    <g clip-path="url(#p20b9397457)">
     <use xlink:href="#C1_0_ae9dcc7aef" x="343.753512" y="203.125724" style="fill: #6aaed6"/>
    </g>
    <g clip-path="url(#p20b9397457)">
     <use xlink:href="#C1_0_ae9dcc7aef" x="347.145945" y="187.15379" style="fill: #6aaed6"/>
    </g>
    <g clip-path="url(#p20b9397457)">
     <use xlink:href="#C1_0_ae9dcc7aef" x="308.020211" y="219.170834" style="fill: #6aaed6"/>
    </g>
    <g clip-path="url(#p20b9397457)">
     <use xlink:href="#C1_0_ae9dcc7aef" x="299.509504" y="194.269664" style="fill: #6aaed6"/>
    </g>
    <g clip-path="url(#p20b9397457)">
     <use xlink:href="#C1_0_ae9dcc7aef" x="330.970511" y="203.272165" style="fill: #6aaed6"/>
    </g>
    <g clip-path="url(#p20b9397457)">
     <use xlink:href="#C1_0_ae9dcc7aef" x="270.218306" y="166.090198" style="fill: #6aaed6"/>
    </g>
    <g clip-path="url(#p20b9397457)">
     <use xlink:href="#C1_0_ae9dcc7aef" x="303.254854" y="173.06146" style="fill: #6aaed6"/>
    </g>
    <g clip-path="url(#p20b9397457)">
     <use xlink:href="#C1_0_ae9dcc7aef" x="323.470406" y="184.715927" style="fill: #6aaed6"/>
    </g>
    <g clip-path="url(#p20b9397457)">
     <use xlink:href="#C1_0_ae9dcc7aef" x="327.01536" y="162.734047" style="fill: #6aaed6"/>
    </g>
    <g clip-path="url(#p20b9397457)">
     <use xlink:href="#C1_0_ae9dcc7aef" x="315.75122" y="228.933037" style="fill: #6aaed6"/>
    </g>
    <g clip-path="url(#p20b9397457)">
     <use xlink:href="#C1_0_ae9dcc7aef" x="311.361835" y="166.117731" style="fill: #6aaed6"/>
    </g>
    <g clip-path="url(#p20b9397457)">
     <use xlink:href="#C1_0_ae9dcc7aef" x="291.557758" y="241.637602" style="fill: #6aaed6"/>
    </g>
    <g clip-path="url(#p20b9397457)">
     <use xlink:href="#C1_0_ae9dcc7aef" x="396.189818" y="191.247873" style="fill: #6aaed6"/>
    </g>
    <g clip-path="url(#p20b9397457)">
     <use xlink:href="#C1_0_ae9dcc7aef" x="289.138934" y="206.978225" style="fill: #6aaed6"/>
    </g>
    <g clip-path="url(#p20b9397457)">
     <use xlink:href="#C1_0_ae9dcc7aef" x="323.470406" y="224.022288" style="fill: #6aaed6"/>
    </g>
    <g clip-path="url(#p20b9397457)">
     <use xlink:href="#C1_0_ae9dcc7aef" x="291.600222" y="232.040006" style="fill: #6aaed6"/>
    </g>
    <g clip-path="url(#p20b9397457)">
     <use xlink:href="#C1_0_ae9dcc7aef" x="306.204869" y="253.714677" style="fill: #6aaed6"/>
    </g>
    <g clip-path="url(#p20b9397457)">
     <use xlink:href="#C1_0_ae9dcc7aef" x="343.294015" y="263.50214" style="fill: #6aaed6"/>
    </g>
    <g clip-path="url(#p20b9397457)">
     <use xlink:href="#C1_0_ae9dcc7aef" x="347.919474" y="244.788343" style="fill: #6aaed6"/>
    </g>
    <g clip-path="url(#p20b9397457)">
     <use xlink:href="#C1_0_ae9dcc7aef" x="361.882263" y="250.25718" style="fill: #6aaed6"/>
    </g>
    <g clip-path="url(#p20b9397457)">
     <use xlink:href="#C1_0_ae9dcc7aef" x="329.451329" y="258.141996" style="fill: #6aaed6"/>
    </g>
    <g clip-path="url(#p20b9397457)">
     <use xlink:href="#C1_0_ae9dcc7aef" x="281.416374" y="250.218097" style="fill: #6aaed6"/>
    </g>
    <g clip-path="url(#p20b9397457)">
     <use xlink:href="#C1_0_ae9dcc7aef" x="331.473068" y="229.613734" style="fill: #6aaed6"/>
    </g>
    <g clip-path="url(#p20b9397457)">
     <use xlink:href="#C1_0_ae9dcc7aef" x="344.599214" y="173.658192" style="fill: #6aaed6"/>
    </g>
    <g clip-path="url(#p20b9397457)">
     <use xlink:href="#C1_0_ae9dcc7aef" x="348.16538" y="227.368453" style="fill: #6aaed6"/>
    </g>
    <g clip-path="url(#p20b9397457)">
     <use xlink:href="#C1_0_ae9dcc7aef" x="268.016934" y="240.820264" style="fill: #6aaed6"/>
    </g>
    <g clip-path="url(#p20b9397457)">
     <use xlink:href="#C1_0_ae9dcc7aef" x="339.700948" y="246.721073" style="fill: #6aaed6"/>
    </g>
    <g clip-path="url(#p20b9397457)">
     <use xlink:href="#C1_0_ae9dcc7aef" x="297.327511" y="209.023011" style="fill: #6aaed6"/>
    </g>
    <g clip-path="url(#p20b9397457)">
     <use xlink:href="#C1_0_ae9dcc7aef" x="275.895483" y="210.766571" style="fill: #6aaed6"/>
    </g>
    <g clip-path="url(#p20b9397457)">
     <use xlink:href="#C1_0_ae9dcc7aef" x="278.400369" y="168.158499" style="fill: #6aaed6"/>
    </g>
    <g clip-path="url(#p20b9397457)">
     <use xlink:href="#C1_0_ae9dcc7aef" x="360.52697" y="168.235748" style="fill: #6aaed6"/>
    </g>
    <g clip-path="url(#p20b9397457)">
     <use xlink:href="#C1_0_ae9dcc7aef" x="250.750994" y="192.204269" style="fill: #6aaed6"/>
    </g>
    <g clip-path="url(#p20b9397457)">
     <use xlink:href="#C1_0_ae9dcc7aef" x="281.91557" y="202.774189" style="fill: #6aaed6"/>
    </g>
    <g clip-path="url(#p20b9397457)">
     <use xlink:href="#C1_0_ae9dcc7aef" x="323.470406" y="150.827696" style="fill: #6aaed6"/>
    </g>
    <g clip-path="url(#p20b9397457)">
     <use xlink:href="#C1_0_ae9dcc7aef" x="273.761157" y="200.609107" style="fill: #6aaed6"/>
    </g>
    <g clip-path="url(#p20b9397457)">
     <use xlink:href="#C1_0_ae9dcc7aef" x="301.931373" y="201.993296" style="fill: #6aaed6"/>
    </g>
    <g clip-path="url(#p20b9397457)">
     <use xlink:href="#C1_0_ae9dcc7aef" x="307.763355" y="236.430693" style="fill: #6aaed6"/>
    </g>
    <g clip-path="url(#p20b9397457)">
     <use xlink:href="#C1_0_ae9dcc7aef" x="318.2093" y="200.694724" style="fill: #6aaed6"/>
    </g>
    <g clip-path="url(#p20b9397457)">
     <use xlink:href="#C1_0_ae9dcc7aef" x="331.359085" y="248.093239" style="fill: #6aaed6"/>
    </g>
    <g clip-path="url(#p20b9397457)">
     <use xlink:href="#C1_0_ae9dcc7aef" x="314.283647" y="256.12325" style="fill: #6aaed6"/>
    </g>
    <g clip-path="url(#p20b9397457)">
     <use xlink:href="#C1_0_ae9dcc7aef" x="313.423909" y="173.937141" style="fill: #6aaed6"/>
    </g>
    <g clip-path="url(#p20b9397457)">
     <use xlink:href="#C1_0_ae9dcc7aef" x="309.924177" y="264.579937" style="fill: #6aaed6"/>
    </g>
    <g clip-path="url(#p20b9397457)">
     <use xlink:href="#C1_0_ae9dcc7aef" x="299.402436" y="235.168104" style="fill: #6aaed6"/>
    </g>
    <g clip-path="url(#p20b9397457)">
     <use xlink:href="#C1_0_ae9dcc7aef" x="283.106808" y="241.167218" style="fill: #6aaed6"/>
    </g>
    <g clip-path="url(#p20b9397457)">
     <use xlink:href="#C1_0_ae9dcc7aef" x="388.916313" y="194.456823" style="fill: #6aaed6"/>
    </g>
    <g clip-path="url(#p20b9397457)">
     <use xlink:href="#C1_0_ae9dcc7aef" x="330.81431" y="190.905486" style="fill: #6aaed6"/>
    </g>
    <g clip-path="url(#p20b9397457)">
     <use xlink:href="#C1_0_ae9dcc7aef" x="323.470406" y="136.934716" style="fill: #6aaed6"/>
    </g>
    <g clip-path="url(#p20b9397457)">
     <use xlink:href="#C1_0_ae9dcc7aef" x="337.174411" y="254.840583" style="fill: #6aaed6"/>
    </g>
    <g clip-path="url(#p20b9397457)">
     <use xlink:href="#C1_0_ae9dcc7aef" x="331.351804" y="212.393968" style="fill: #6aaed6"/>
    </g>
    <g clip-path="url(#p20b9397457)">
     <use xlink:href="#C1_0_ae9dcc7aef" x="258.708098" y="194.462494" style="fill: #6aaed6"/>
    </g>
    <g clip-path="url(#p20b9397457)">
     <use xlink:href="#C1_0_ae9dcc7aef" x="339.45896" y="210.073493" style="fill: #6aaed6"/>
    </g>
    <g clip-path="url(#p20b9397457)">
     <use xlink:href="#C1_0_ae9dcc7aef" x="396.189818" y="204.815712" style="fill: #6aaed6"/>
    </g>
    <g clip-path="url(#p20b9397457)">
     <use xlink:href="#C1_0_ae9dcc7aef" x="336.202682" y="174.684269" style="fill: #6aaed6"/>
    </g>
    <g clip-path="url(#p20b9397457)">
     <use xlink:href="#C1_0_ae9dcc7aef" x="291.797158" y="215.127001" style="fill: #6aaed6"/>
    </g>
    <g clip-path="url(#p20b9397457)">
     <use xlink:href="#C1_0_ae9dcc7aef" x="364.108187" y="213.547877" style="fill: #6aaed6"/>
    </g>
    <g clip-path="url(#p20b9397457)">
     <use xlink:href="#C1_0_ae9dcc7aef" x="277.635294" y="223.44681" style="fill: #6aaed6"/>
    </g>
    <g clip-path="url(#p20b9397457)">
     <use xlink:href="#C1_0_ae9dcc7aef" x="294.922197" y="171.639467" style="fill: #6aaed6"/>
    </g>
    <g clip-path="url(#p20b9397457)">
     <use xlink:href="#C1_0_ae9dcc7aef" x="368.99031" y="168.059196" style="fill: #6aaed6"/>
    </g>
    <g clip-path="url(#p20b9397457)">
     <use xlink:href="#C1_0_ae9dcc7aef" x="336.520602" y="197.184447" style="fill: #6aaed6"/>
    </g>
    <g clip-path="url(#p20b9397457)">
     <use xlink:href="#C1_0_ae9dcc7aef" x="328.053072" y="172.502846" style="fill: #6aaed6"/>
    </g>
    <g clip-path="url(#p20b9397457)">
     <use xlink:href="#C1_0_ae9dcc7aef" x="355.725992" y="214.675277" style="fill: #6aaed6"/>
    </g>
    <g clip-path="url(#p20b9397457)">
     <use xlink:href="#C1_0_ae9dcc7aef" x="338.733929" y="188.057545" style="fill: #6aaed6"/>
    </g>
    <g clip-path="url(#p20b9397457)">
     <use xlink:href="#C1_0_ae9dcc7aef" x="311.040705" y="196.406497" style="fill: #6aaed6"/>
    </g>
    <g clip-path="url(#p20b9397457)">
     <use xlink:href="#C1_0_ae9dcc7aef" x="372.551363" y="222.495297" style="fill: #6aaed6"/>
    </g>
    <g clip-path="url(#p20b9397457)">
     <use xlink:href="#C1_0_ae9dcc7aef" x="315.131728" y="183.326319" style="fill: #6aaed6"/>
    </g>
    <g clip-path="url(#p20b9397457)">
     <use xlink:href="#C1_0_ae9dcc7aef" x="289.875863" y="250.518587" style="fill: #6aaed6"/>
    </g>
    <g clip-path="url(#p20b9397457)">
     <use xlink:href="#C1_0_ae9dcc7aef" x="358.721505" y="196.094355" style="fill: #6aaed6"/>
    </g>
    <g clip-path="url(#p20b9397457)">
     <use xlink:href="#C1_0_ae9dcc7aef" x="315.449447" y="148.249801" style="fill: #6aaed6"/>
    </g>
    <g clip-path="url(#p20b9397457)">
     <use xlink:href="#C1_0_ae9dcc7aef" x="314.349977" y="211.672729" style="fill: #6aaed6"/>
    </g>
    <g clip-path="url(#p20b9397457)">
     <use xlink:href="#C1_0_ae9dcc7aef" x="309.849914" y="204.843956" style="fill: #6aaed6"/>
    </g>
    <g clip-path="url(#p20b9397457)">
     <use xlink:href="#C1_0_ae9dcc7aef" x="347.403522" y="216.15039" style="fill: #6aaed6"/>
    </g>
    <g clip-path="url(#p20b9397457)">
     <use xlink:href="#C1_0_ae9dcc7aef" x="365.63766" y="202.467234" style="fill: #6aaed6"/>
    </g>
    <g clip-path="url(#p20b9397457)">
     <use xlink:href="#C1_0_ae9dcc7aef" x="339.709582" y="227.751752" style="fill: #6aaed6"/>
    </g>
    <g clip-path="url(#p20b9397457)">
     <use xlink:href="#C1_0_ae9dcc7aef" x="286.600184" y="170.162016" style="fill: #6aaed6"/>
    </g>
    <g clip-path="url(#p20b9397457)">
     <use xlink:href="#C1_0_ae9dcc7aef" x="351.727826" y="200.637018" style="fill: #6aaed6"/>
    </g>
    <g clip-path="url(#p20b9397457)">
     <use xlink:href="#C1_0_ae9dcc7aef" x="305.006905" y="211.636634" style="fill: #6aaed6"/>
    </g>
    <g clip-path="url(#p20b9397457)">
     <use xlink:href="#C1_0_ae9dcc7aef" x="350.200828" y="208.567028" style="fill: #6aaed6"/>
    </g>
    <g clip-path="url(#p20b9397457)">
     <use xlink:href="#C1_0_ae9dcc7aef" x="350.000085" y="161.436859" style="fill: #6aaed6"/>
    </g>
    <g clip-path="url(#p20b9397457)">
     <use xlink:href="#C1_0_ae9dcc7aef" x="388.373676" y="208.219551" style="fill: #6aaed6"/>
    </g>
    <g clip-path="url(#p20b9397457)">
     <use xlink:href="#C1_0_ae9dcc7aef" x="396.189818" y="206.345648" style="fill: #6aaed6"/>
    </g>
    <g clip-path="url(#p20b9397457)">
     <use xlink:href="#C1_0_ae9dcc7aef" x="318.492255" y="192.58071" style="fill: #6aaed6"/>
    </g>
    <g clip-path="url(#p20b9397457)">
     <use xlink:href="#C1_0_ae9dcc7aef" x="320.853369" y="168.262154" style="fill: #6aaed6"/>
    </g>
    <g clip-path="url(#p20b9397457)">
     <use xlink:href="#C1_0_ae9dcc7aef" x="319.673924" y="158.719808" style="fill: #6aaed6"/>
    </g>
    <g clip-path="url(#p20b9397457)">
     <use xlink:href="#C1_0_ae9dcc7aef" x="306.213457" y="189.783499" style="fill: #6aaed6"/>
    </g>
    <g clip-path="url(#p20b9397457)">
     <use xlink:href="#C1_0_ae9dcc7aef" x="323.470406" y="251.018032" style="fill: #6aaed6"/>
    </g>
    <g clip-path="url(#p20b9397457)">
     <use xlink:href="#C1_0_ae9dcc7aef" x="316.479526" y="219.475718" style="fill: #6aaed6"/>
    </g>
    <g clip-path="url(#p20b9397457)">
     <use xlink:href="#C1_0_ae9dcc7aef" x="371.519316" y="209.651525" style="fill: #6aaed6"/>
    </g>
    <g clip-path="url(#p20b9397457)">
     <use xlink:href="#C1_0_ae9dcc7aef" x="285.485163" y="226.46483" style="fill: #6aaed6"/>
    </g>
    <g clip-path="url(#p20b9397457)">
     <use xlink:href="#C1_0_ae9dcc7aef" x="332.30932" y="156.442817" style="fill: #6aaed6"/>
    </g>
    <g clip-path="url(#p20b9397457)">
     <use xlink:href="#C1_0_ae9dcc7aef" x="339.26197" y="218.358932" style="fill: #6aaed6"/>
    </g>
    <g clip-path="url(#p20b9397457)">
     <use xlink:href="#C1_0_ae9dcc7aef" x="344.898162" y="195.137509" style="fill: #6aaed6"/>
    </g>
    <g clip-path="url(#p20b9397457)">
     <use xlink:href="#C1_0_ae9dcc7aef" x="307.370686" y="180.106661" style="fill: #6aaed6"/>
    </g>
    <g clip-path="url(#p20b9397457)">
     <use xlink:href="#C1_0_ae9dcc7aef" x="331.122328" y="220.573854" style="fill: #6aaed6"/>
    </g>
    <g clip-path="url(#p20b9397457)">
     <use xlink:href="#C1_0_ae9dcc7aef" x="286.567085" y="195.780679" style="fill: #6aaed6"/>
    </g>
    <g clip-path="url(#p20b9397457)">
     <use xlink:href="#C1_0_ae9dcc7aef" x="330.961047" y="238.681377" style="fill: #6aaed6"/>
    </g>
    <g clip-path="url(#p20b9397457)">
     <use xlink:href="#C1_0_ae9dcc7aef" x="339.171578" y="236.718066" style="fill: #6aaed6"/>
    </g>
    <g clip-path="url(#p20b9397457)">
     <use xlink:href="#C1_0_ae9dcc7aef" x="250.750994" y="194.413969" style="fill: #6aaed6"/>
    </g>
    <g clip-path="url(#p20b9397457)">
     <use xlink:href="#C1_0_ae9dcc7aef" x="352.686756" y="171.276447" style="fill: #6aaed6"/>
    </g>
    <g clip-path="url(#p20b9397457)">
     <use xlink:href="#C1_0_ae9dcc7aef" x="321.36799" y="260.536647" style="fill: #6aaed6"/>
    </g>
    <g clip-path="url(#p20b9397457)">
     <use xlink:href="#C1_0_ae9dcc7aef" x="315.648559" y="247.934728" style="fill: #6aaed6"/>
    </g>
    <g clip-path="url(#p20b9397457)">
     <use xlink:href="#C1_0_ae9dcc7aef" x="326.72063" y="266.78268" style="fill: #6aaed6"/>
    </g>
    <g clip-path="url(#p20b9397457)">
     <use xlink:href="#C1_0_ae9dcc7aef" x="321.285746" y="176.926769" style="fill: #6aaed6"/>
    </g>
    <g clip-path="url(#p20b9397457)">
     <use xlink:href="#C1_0_ae9dcc7aef" x="331.011475" y="181.052691" style="fill: #6aaed6"/>
    </g>
    <g clip-path="url(#p20b9397457)">
     <use xlink:href="#C1_0_ae9dcc7aef" x="316.476405" y="269.684805" style="fill: #6aaed6"/>
    </g>
    <g clip-path="url(#p20b9397457)">
     <use xlink:href="#C1_0_ae9dcc7aef" x="307.376783" y="227.7545" style="fill: #6aaed6"/>
    </g>
    <g clip-path="url(#p20b9397457)">
     <use xlink:href="#C1_0_ae9dcc7aef" x="396.189818" y="194.112973" style="fill: #6aaed6"/>
    </g>
    <g clip-path="url(#p20b9397457)">
     <use xlink:href="#C1_0_ae9dcc7aef" x="297.742598" y="253.496506" style="fill: #6aaed6"/>
    </g>
    <g clip-path="url(#p20b9397457)">
     <use xlink:href="#C1_0_ae9dcc7aef" x="267.563328" y="209.341917" style="fill: #6aaed6"/>
    </g>
    <g clip-path="url(#p20b9397457)">
     <use xlink:href="#C1_0_ae9dcc7aef" x="299.613574" y="218.222774" style="fill: #6aaed6"/>
    </g>
    <g clip-path="url(#p20b9397457)">
     <use xlink:href="#C1_0_ae9dcc7aef" x="379.971621" y="209.203764" style="fill: #6aaed6"/>
    </g>
    <g clip-path="url(#p20b9397457)">
     <use xlink:href="#C1_0_ae9dcc7aef" x="323.470406" y="215.336511" style="fill: #6aaed6"/>
    </g>
    <g clip-path="url(#p20b9397457)">
     <use xlink:href="#C1_0_ae9dcc7aef" x="345.531117" y="253.552943" style="fill: #6aaed6"/>
    </g>
    <g clip-path="url(#p20b9397457)">
     <use xlink:href="#C1_0_ae9dcc7aef" x="323.470406" y="274.227019" style="fill: #6aaed6"/>
    </g>
    <g clip-path="url(#p20b9397457)">
     <use xlink:href="#C1_0_ae9dcc7aef" x="369.48704" y="246.715415" style="fill: #6aaed6"/>
    </g>
    <g clip-path="url(#p20b9397457)">
     <use xlink:href="#C1_0_ae9dcc7aef" x="307.531395" y="245.646208" style="fill: #6aaed6"/>
    </g>
    <g clip-path="url(#p20b9397457)">
     <use xlink:href="#C1_0_ae9dcc7aef" x="273.791667" y="246.715415" style="fill: #6aaed6"/>
    </g>
    <g clip-path="url(#p20b9397457)">
     <use xlink:href="#C1_0_ae9dcc7aef" x="356.24252" y="243.316182" style="fill: #6aaed6"/>
    </g>
    <g clip-path="url(#p20b9397457)">
     <use xlink:href="#C1_0_ae9dcc7aef" x="356.275996" y="226.9144" style="fill: #6aaed6"/>
    </g>
    <g clip-path="url(#p20b9397457)">
     <use xlink:href="#C1_0_ae9dcc7aef" x="323.470406" y="207.010903" style="fill: #6aaed6"/>
    </g>
    <g clip-path="url(#p20b9397457)">
     <use xlink:href="#C1_0_ae9dcc7aef" x="334.03132" y="166.794671" style="fill: #6aaed6"/>
    </g>
    <g clip-path="url(#p20b9397457)">
     <use xlink:href="#C1_0_ae9dcc7aef" x="298.736036" y="227.130866" style="fill: #6aaed6"/>
    </g>
    <g clip-path="url(#p20b9397457)">
     <use xlink:href="#C1_0_ae9dcc7aef" x="353.986684" y="253.165035" style="fill: #6aaed6"/>
    </g>
    <g clip-path="url(#p20b9397457)">
     <use xlink:href="#C1_0_ae9dcc7aef" x="364.347612" y="224.484148" style="fill: #6aaed6"/>
    </g>
    <g clip-path="url(#p20b9397457)">
     <use xlink:href="#C1_0_ae9dcc7aef" x="377.697772" y="244.752866" style="fill: #6aaed6"/>
    </g>
    <g clip-path="url(#p20b9397457)">
     <use xlink:href="#C1_0_ae9dcc7aef" x="323.470406" y="242.437285" style="fill: #6aaed6"/>
    </g>
    <g clip-path="url(#p20b9397457)">
     <use xlink:href="#C1_0_ae9dcc7aef" x="347.630084" y="236.393451" style="fill: #6aaed6"/>
    </g>
    <g clip-path="url(#p20b9397457)">
     <use xlink:href="#C1_0_ae9dcc7aef" x="315.542055" y="239.611464" style="fill: #6aaed6"/>
    </g>
    <g clip-path="url(#p20b9397457)">
     <use xlink:href="#C1_0_ae9dcc7aef" x="283.350902" y="214.585515" style="fill: #6aaed6"/>
    </g>
    <g clip-path="url(#p20b9397457)">
     <use xlink:href="#C1_0_ae9dcc7aef" x="335.040735" y="265.295518" style="fill: #6aaed6"/>
    </g>
    <g clip-path="url(#p20b9397457)">
     <use xlink:href="#C1_0_ae9dcc7aef" x="323.470406" y="232.242702" style="fill: #6aaed6"/>
    </g>
   </g>
   <g id="PathCollection_3">
    <defs>
     <path id="C2_0_c5b78eb5dd" d="M 0 4.031129 
C 1.069068 4.031129 2.094493 3.606384 2.850439 2.850439 
C 3.606384 2.094493 4.031129 1.069068 4.031129 -0 
C 4.031129 -1.069068 3.606384 -2.094493 2.850439 -2.850439 
C 2.094493 -3.606384 1.069068 -4.031129 0 -4.031129 
C -1.069068 -4.031129 -2.094493 -3.606384 -2.850439 -2.850439 
C -3.606384 -2.094493 -4.031129 -1.069068 -4.031129 0 
C -4.031129 1.069068 -3.606384 2.094493 -2.850439 2.850439 
C -2.094493 3.606384 -1.069068 4.031129 0 4.031129 
z
"/>
    </defs>
    <g clip-path="url(#p20b9397457)">
     <use xlink:href="#C2_0_c5b78eb5dd" x="496.779811" y="213.867306" style="fill: #2070b4"/>
    </g>
    <g clip-path="url(#p20b9397457)">
     <use xlink:href="#C2_0_c5b78eb5dd" x="496.867145" y="242.390145" style="fill: #2070b4"/>
    </g>
    <g clip-path="url(#p20b9397457)">
     <use xlink:href="#C2_0_c5b78eb5dd" x="515.662189" y="208.436693" style="fill: #2070b4"/>
    </g>
    <g clip-path="url(#p20b9397457)">
     <use xlink:href="#C2_0_c5b78eb5dd" x="524.098553" y="207.769849" style="fill: #2070b4"/>
    </g>
    <g clip-path="url(#p20b9397457)">
     <use xlink:href="#C2_0_c5b78eb5dd" x="488.610888" y="177.806465" style="fill: #2070b4"/>
    </g>
    <g clip-path="url(#p20b9397457)">
     <use xlink:href="#C2_0_c5b78eb5dd" x="496.809577" y="179.814159" style="fill: #2070b4"/>
    </g>
    <g clip-path="url(#p20b9397457)">
     <use xlink:href="#C2_0_c5b78eb5dd" x="527.158548" y="224.820606" style="fill: #2070b4"/>
    </g>
    <g clip-path="url(#p20b9397457)">
     <use xlink:href="#C2_0_c5b78eb5dd" x="497.005337" y="233.383847" style="fill: #2070b4"/>
    </g>
    <g clip-path="url(#p20b9397457)">
     <use xlink:href="#C2_0_c5b78eb5dd" x="521.757205" y="168.92012" style="fill: #2070b4"/>
    </g>
    <g clip-path="url(#p20b9397457)">
     <use xlink:href="#C2_0_c5b78eb5dd" x="503.935385" y="197.245782" style="fill: #2070b4"/>
    </g>
    <g clip-path="url(#p20b9397457)">
     <use xlink:href="#C2_0_c5b78eb5dd" x="513.713086" y="179.547422" style="fill: #2070b4"/>
    </g>
    <g clip-path="url(#p20b9397457)">
     <use xlink:href="#C2_0_c5b78eb5dd" x="497.719895" y="153.339499" style="fill: #2070b4"/>
    </g>
    <g clip-path="url(#p20b9397457)">
     <use xlink:href="#C2_0_c5b78eb5dd" x="484.670327" y="185.564946" style="fill: #2070b4"/>
    </g>
    <g clip-path="url(#p20b9397457)">
     <use xlink:href="#C2_0_c5b78eb5dd" x="517.694613" y="190.948098" style="fill: #2070b4"/>
    </g>
    <g clip-path="url(#p20b9397457)">
     <use xlink:href="#C2_0_c5b78eb5dd" x="513.292293" y="169.004057" style="fill: #2070b4"/>
    </g>
    <g clip-path="url(#p20b9397457)">
     <use xlink:href="#C2_0_c5b78eb5dd" x="512.369717" y="253.822108" style="fill: #2070b4"/>
    </g>
    <g clip-path="url(#p20b9397457)">
     <use xlink:href="#C2_0_c5b78eb5dd" x="510.061556" y="222.64669" style="fill: #2070b4"/>
    </g>
    <g clip-path="url(#p20b9397457)">
     <use xlink:href="#C2_0_c5b78eb5dd" x="482.485333" y="207.255795" style="fill: #2070b4"/>
    </g>
    <g clip-path="url(#p20b9397457)">
     <use xlink:href="#C2_0_c5b78eb5dd" x="513.248114" y="240.68346" style="fill: #2070b4"/>
    </g>
    <g clip-path="url(#p20b9397457)">
     <use xlink:href="#C2_0_c5b78eb5dd" x="507.197561" y="208.5435" style="fill: #2070b4"/>
    </g>
    <g clip-path="url(#p20b9397457)">
     <use xlink:href="#C2_0_c5b78eb5dd" x="524.058356" y="185.631349" style="fill: #2070b4"/>
    </g>
    <g clip-path="url(#p20b9397457)">
     <use xlink:href="#C2_0_c5b78eb5dd" x="509.229245" y="190.954475" style="fill: #2070b4"/>
    </g>
    <g clip-path="url(#p20b9397457)">
     <use xlink:href="#C2_0_c5b78eb5dd" x="496.323753" y="222.577244" style="fill: #2070b4"/>
    </g>
    <g clip-path="url(#p20b9397457)">
     <use xlink:href="#C2_0_c5b78eb5dd" x="538.62964" y="175.367774" style="fill: #2070b4"/>
    </g>
    <g clip-path="url(#p20b9397457)">
     <use xlink:href="#C2_0_c5b78eb5dd" x="491.028849" y="204.937665" style="fill: #2070b4"/>
    </g>
    <g clip-path="url(#p20b9397457)">
     <use xlink:href="#C2_0_c5b78eb5dd" x="505.268937" y="156.98781" style="fill: #2070b4"/>
    </g>
    <g clip-path="url(#p20b9397457)">
     <use xlink:href="#C2_0_c5b78eb5dd" x="466.952094" y="202.604892" style="fill: #2070b4"/>
    </g>
    <g clip-path="url(#p20b9397457)">
     <use xlink:href="#C2_0_c5b78eb5dd" x="487.242871" y="194.869777" style="fill: #2070b4"/>
    </g>
    <g clip-path="url(#p20b9397457)">
     <use xlink:href="#C2_0_c5b78eb5dd" x="497.180722" y="169.195509" style="fill: #2070b4"/>
    </g>
    <g clip-path="url(#p20b9397457)">
     <use xlink:href="#C2_0_c5b78eb5dd" x="490.168955" y="228.628958" style="fill: #2070b4"/>
    </g>
    <g clip-path="url(#p20b9397457)">
     <use xlink:href="#C2_0_c5b78eb5dd" x="503.547706" y="142.430808" style="fill: #2070b4"/>
    </g>
    <g clip-path="url(#p20b9397457)">
     <use xlink:href="#C2_0_c5b78eb5dd" x="505.268937" y="180.11793" style="fill: #2070b4"/>
    </g>
    <g clip-path="url(#p20b9397457)">
     <use xlink:href="#C2_0_c5b78eb5dd" x="500.875243" y="189.728725" style="fill: #2070b4"/>
    </g>
    <g clip-path="url(#p20b9397457)">
     <use xlink:href="#C2_0_c5b78eb5dd" x="525.468673" y="194.824478" style="fill: #2070b4"/>
    </g>
    <g clip-path="url(#p20b9397457)">
     <use xlink:href="#C2_0_c5b78eb5dd" x="488.356584" y="213.063829" style="fill: #2070b4"/>
    </g>
    <g clip-path="url(#p20b9397457)">
     <use xlink:href="#C2_0_c5b78eb5dd" x="519.598305" y="200.633321" style="fill: #2070b4"/>
    </g>
    <g clip-path="url(#p20b9397457)">
     <use xlink:href="#C2_0_c5b78eb5dd" x="499.489364" y="205.210683" style="fill: #2070b4"/>
    </g>
    <g clip-path="url(#p20b9397457)">
     <use xlink:href="#C2_0_c5b78eb5dd" x="507.92378" y="149.332284" style="fill: #2070b4"/>
    </g>
    <g clip-path="url(#p20b9397457)">
     <use xlink:href="#C2_0_c5b78eb5dd" x="504.853741" y="216.290579" style="fill: #2070b4"/>
    </g>
    <g clip-path="url(#p20b9397457)">
     <use xlink:href="#C2_0_c5b78eb5dd" x="535.587391" y="224.072455" style="fill: #2070b4"/>
    </g>
    <g clip-path="url(#p20b9397457)">
     <use xlink:href="#C2_0_c5b78eb5dd" x="511.173953" y="201.426033" style="fill: #2070b4"/>
    </g>
    <g clip-path="url(#p20b9397457)">
     <use xlink:href="#C2_0_c5b78eb5dd" x="492.525662" y="188.570037" style="fill: #2070b4"/>
    </g>
    <g clip-path="url(#p20b9397457)">
     <use xlink:href="#C2_0_c5b78eb5dd" x="475.414367" y="202.822982" style="fill: #2070b4"/>
    </g>
    <g clip-path="url(#p20b9397457)">
     <use xlink:href="#C2_0_c5b78eb5dd" x="480.300987" y="176.268424" style="fill: #2070b4"/>
    </g>
    <g clip-path="url(#p20b9397457)">
     <use xlink:href="#C2_0_c5b78eb5dd" x="505.268937" y="235.133589" style="fill: #2070b4"/>
    </g>
    <g clip-path="url(#p20b9397457)">
     <use xlink:href="#C2_0_c5b78eb5dd" x="521.154705" y="230.504363" style="fill: #2070b4"/>
    </g>
    <g clip-path="url(#p20b9397457)">
     <use xlink:href="#C2_0_c5b78eb5dd" x="530.175382" y="175.780736" style="fill: #2070b4"/>
    </g>
    <g clip-path="url(#p20b9397457)">
     <use xlink:href="#C2_0_c5b78eb5dd" x="505.268937" y="171.575179" style="fill: #2070b4"/>
    </g>
    <g clip-path="url(#p20b9397457)">
     <use xlink:href="#C2_0_c5b78eb5dd" x="505.268937" y="243.376398" style="fill: #2070b4"/>
    </g>
    <g clip-path="url(#p20b9397457)">
     <use xlink:href="#C2_0_c5b78eb5dd" x="482.880444" y="224.528174" style="fill: #2070b4"/>
    </g>
    <g clip-path="url(#p20b9397457)">
     <use xlink:href="#C2_0_c5b78eb5dd" x="512.73404" y="231.331843" style="fill: #2070b4"/>
    </g>
    <g clip-path="url(#p20b9397457)">
     <use xlink:href="#C2_0_c5b78eb5dd" x="495.49036" y="196.687157" style="fill: #2070b4"/>
    </g>
    <g clip-path="url(#p20b9397457)">
     <use xlink:href="#C2_0_c5b78eb5dd" x="517.246573" y="218.383465" style="fill: #2070b4"/>
    </g>
    <g clip-path="url(#p20b9397457)">
     <use xlink:href="#C2_0_c5b78eb5dd" x="503.166394" y="227.32396" style="fill: #2070b4"/>
    </g>
    <g clip-path="url(#p20b9397457)">
     <use xlink:href="#C2_0_c5b78eb5dd" x="521.9413" y="177.652445" style="fill: #2070b4"/>
    </g>
    <g clip-path="url(#p20b9397457)">
     <use xlink:href="#C2_0_c5b78eb5dd" x="505.268937" y="258.211482" style="fill: #2070b4"/>
    </g>
    <g clip-path="url(#p20b9397457)">
     <use xlink:href="#C2_0_c5b78eb5dd" x="539.455605" y="202.807387" style="fill: #2070b4"/>
    </g>
    <g clip-path="url(#p20b9397457)">
     <use xlink:href="#C2_0_c5b78eb5dd" x="530.995628" y="203.095138" style="fill: #2070b4"/>
    </g>
    <g clip-path="url(#p20b9397457)">
     <use xlink:href="#C2_0_c5b78eb5dd" x="472.435359" y="173.287854" style="fill: #2070b4"/>
    </g>
   </g>
   <g id="text_16">
    <!-- ns -->
    <g transform="translate(223.094422 109.936821) scale(0.18 -0.18)">
     <use xlink:href="#FiraSans-Regular-6e"/>
     <use xlink:href="#FiraSans-Regular-73" x="58.599991"/>
    </g>
   </g>
   <g id="text_17">
    <!-- ns -->
    <g transform="translate(404.892953 89.873117) scale(0.18 -0.18)">
     <use xlink:href="#FiraSans-Regular-6e"/>
     <use xlink:href="#FiraSans-Regular-73" x="58.599991"/>
    </g>
   </g>
   <g id="text_18">
    <!-- * -->
    <g transform="translate(319.518844 69.809414) scale(0.18 -0.18)">
     <defs>
      <path id="FiraSans-Regular-2a" d="M 1702 3379 
L 2368 2637 
L 1907 2298 
L 1402 3155 
L 902 2298 
L 442 2630 
L 1101 3379 
L 128 3590 
L 301 4115 
L 1210 3725 
L 1114 4730 
L 1690 4730 
L 1594 3718 
L 2502 4122 
L 2682 3590 
L 1702 3379 
z
" transform="scale(0.015625)"/>
     </defs>
     <use xlink:href="#FiraSans-Regular-2a"/>
    </g>
   </g>
   <g id="text_19">
    <!-- Contributor size and dataset size -->
    <g transform="translate(170.205937 51) scale(0.2 -0.2)">
     <use xlink:href="#FiraSans-Regular-43"/>
     <use xlink:href="#FiraSans-Regular-6f" x="55.999985"/>
     <use xlink:href="#FiraSans-Regular-6e" x="114.399979"/>
     <use xlink:href="#FiraSans-Regular-74" x="172.999969"/>
     <use xlink:href="#FiraSans-Regular-72" x="209.09996"/>
     <use xlink:href="#FiraSans-Regular-69" x="247.699951"/>
     <use xlink:href="#FiraSans-Regular-62" x="275.899948"/>
     <use xlink:href="#FiraSans-Regular-75" x="335.299942"/>
     <use xlink:href="#FiraSans-Regular-74" x="393.499939"/>
     <use xlink:href="#FiraSans-Regular-6f" x="429.59993"/>
     <use xlink:href="#FiraSans-Regular-72" x="487.999924"/>
     <use xlink:href="#FiraSans-Regular-20" x="526.599915"/>
     <use xlink:href="#FiraSans-Regular-73" x="553.099899"/>
     <use xlink:href="#FiraSans-Regular-69" x="599.799896"/>
     <use xlink:href="#FiraSans-Regular-7a" x="627.999893"/>
     <use xlink:href="#FiraSans-Regular-65" x="671.69989"/>
     <use xlink:href="#FiraSans-Regular-20" x="726.699875"/>
     <use xlink:href="#FiraSans-Regular-61" x="753.19986"/>
     <use xlink:href="#FiraSans-Regular-6e" x="807.599854"/>
     <use xlink:href="#FiraSans-Regular-64" x="866.199844"/>
     <use xlink:href="#FiraSans-Regular-20" x="925.999832"/>
     <use xlink:href="#FiraSans-Regular-64" x="952.499817"/>
     <use xlink:href="#FiraSans-Regular-61" x="1012.299805"/>
     <use xlink:href="#FiraSans-Regular-74" x="1066.699799"/>
     <use xlink:href="#FiraSans-Regular-61" x="1102.799789"/>
     <use xlink:href="#FiraSans-Regular-73" x="1157.199783"/>
     <use xlink:href="#FiraSans-Regular-65" x="1203.89978"/>
     <use xlink:href="#FiraSans-Regular-74" x="1258.899765"/>
     <use xlink:href="#FiraSans-Regular-20" x="1294.999756"/>
     <use xlink:href="#FiraSans-Regular-73" x="1321.499741"/>
     <use xlink:href="#FiraSans-Regular-69" x="1368.199738"/>
     <use xlink:href="#FiraSans-Regular-7a" x="1396.399734"/>
     <use xlink:href="#FiraSans-Regular-65" x="1440.099731"/>
    </g>
   </g>
  </g>
 </g>
 <defs>
  <clipPath id="p20b9397457">
   <rect x="92.836875" y="57" width="453.76" height="344.01625"/>
  </clipPath>
 </defs>
</svg>
