dandiset,dandiset_relation,pub_url,pub_ncite,pub_title,pub_author,pub_year,pub_venue,pub_abstract
dandi.000019/0.220126.2148,found_in_pub,https://elifesciences.org/articles/78362,34,The neurodata without borders ecosystem for neurophysiological data science,"['O Rübel', 'A Tritt', 'R Ly', 'BK Dichter', 'S Ghosh', 'L Niu']",2022,Elife,"The neurophysiology of cells and tissues are monitored electrophysiologically and optically  in diverse experiments and species, ranging from flies to humans. Understanding the brain"
dandi.000037/0.230426.0054,found_in_pub,https://www.nature.com/articles/s41597-023-02214-y,1,Responses of pyramidal cell somata and apical dendrites in mouse visual cortex over multiple days,"['CJ Gillon', 'JA Lecoq', 'JE Pina', 'R Ahmed', 'YN Billeh']",2023,Scientific Data,"The apical dendrites of pyramidal neurons in sensory cortex receive primarily top-down  signals from associative and motor regions, while cell bodies and nearby dendrites are heavily"
dandi.000055/0.220127.0436,found_in_pub,https://www.nature.com/articles/s41597-022-01280-y,7,AJILE12: Long-term naturalistic human intracranial neural recordings and pose,"['SM Peterson', 'SH Singh', 'B Dichter', 'M Scheid', 'RPN Rao']",2022,Scientific data,"Understanding the neural basis of human movement in naturalistic scenarios is critical for  expanding neuroscience research beyond constrained laboratory paradigms. Here, we"
dandi.000055/0.220127.0436,found_in_pub,https://arxiv.org/abs/2302.08643,1,Fast Temporal Wavelet Graph Neural Networks,"['DT Nguyen', 'MDT Nguyen', 'TS Hy', 'R Kondor']",2023,arXiv preprint arXiv …,"Spatio-temporal signals forecasting plays an important role in numerous domains, especially  in neuroscience and transportation. The task is challenging due to the highly intricate"
dandi.000165/0.211118.1526,found_in_pub,https://www.cell.com/cell-reports/pdf/S2211-1247(21)01655-7.pdf,7,Dentate gyrus and CA3 GABAergic interneurons bidirectionally modulate signatures of internal and external drive to CA1,"['EAA Jones', 'A Rao', 'M Zilberter', 'B Djukic', 'JS Bant']",2021,Cell reports,"Specific classes of GABAergic neurons play specific roles in regulating information processing  in the brain. In the hippocampus, two major classes, parvalbumin-expressing (PV + ) and"
dandi.000207/0.220216.0323,found_in_pub,https://www.nature.com/articles/s41593-022-01020-w,38,Neurons detect cognitive boundaries to structure episodic memories in humans,"['J Zheng', 'AGP Schjetnan', 'M Yebra', 'BA Gomes']",2022,Nature …,"While experience is continuous, memories are organized as discrete events. Cognitive  boundaries are thought to segment experience and structure memory, but how this process is"
dandi.000230/0.220506.1516,found_in_pub,https://www.cell.com/cell-reports-methods/pdf/S2667-2375(22)00084-4.pdf,1,All-viral tracing of monosynaptic inputs to single birthdate-defined neurons in the intact brain,"['RI Jacobsen', 'RR Nair', 'HA Obenhaus', 'F Donato']",2022,Cell reports …,"Neuronal firing patterns are the result of inputs converging onto single cells. Identifying  these inputs, anatomically and functionally, is essential to understand how neurons integrate"
dandi.000231/0.220904.1554,found_in_pub,https://www.nature.com/articles/s41597-022-01728-1,1,"A detailed behavioral, videographic, and neural dataset on object recognition in mice",['CC Rodgers'],2022,Scientific Data,"Mice adeptly use their whiskers to touch, recognize, and learn about objects in their environment.  This behavior is enabled by computations performed by populations of neurons in the"
dandi.000292/0.220708.1652,found_in_pub,https://academic.oup.com/gigascience/article-abstract/doi/10.1093/gigascience/giac108/6827564,2,An in vitro whole-cell electrophysiology dataset of human cortical neurons,"['D Howard', 'HM Chameh', 'A Guet-McCreight']",2022,…,Background Whole-cell patch-clamp electrophysiology is an essential technique for understanding  how single neurons translate their diverse inputs into a functional output. The relative
dandi.000293/0.220708.1652,found_in_pub,https://academic.oup.com/gigascience/article-abstract/doi/10.1093/gigascience/giac108/6827564,2,An in vitro whole-cell electrophysiology dataset of human cortical neurons,"['D Howard', 'HM Chameh', 'A Guet-McCreight']",2022,…,Background Whole-cell patch-clamp electrophysiology is an essential technique for understanding  how single neurons translate their diverse inputs into a functional output. The relative
dandi.000404/0.230605.2024,found_in_pub,https://www.cell.com/current-biology/pdf/S0960-9822(23)00778-9.pdf,0,Invariant neural dynamics drive commands to control different movements,"['VR Athalye', 'P Khanna', 'S Gowda', 'AL Orsborn']",2023,Current Biology,It has been proposed that the nervous system has the capacity to generate a wide variety of  movements because it reuses some invariant code. Previous work has identified that
dandi.000447/0.230316.2133,found_in_pub,https://www.sciencedirect.com/science/article/pii/S266616672300480X,0,Protocol for geometric transformation of cognitive maps for generalization across hippocampal-prefrontal circuits,"['JD Shin', 'W Tang', 'SP Jadhav']",2023,STAR protocols,"Memory generalization is the ability to abstract knowledge from prior experiences and is  critical for flexible behavior in novel situations. Here, we describe a protocol for simultaneous"
dandi.000458/0.230317.0039,found_in_pub,https://elifesciences.org/articles/84630,2,Cortico-thalamo-cortical interactions modulate electrically evoked EEG responses in mice,"['LD Claar', 'I Rembado', 'JR Kuyat', 'S Russo', 'LC Marks']",2023,Elife,"Perturbational complexity analysis predicts the presence of consciousness in volunteers  and patients by stimulating the brain with brief pulses, recording EEG responses, and"
dandi.000473/0.230417.1502,found_in_pub,https://www.nature.com/articles/s41593-023-01367-8,0,Esr1+ hypothalamic-habenula neurons shape aversive states,"['D Calvigioni', 'J Fuzik', 'P Le Merre', 'M Slashcheva']",2023,Nature …,Excitatory projections from the lateral hypothalamic area (LHA) to the lateral habenula (LHb)  drive aversive responses. We used patch-sequencing (Patch-seq) guided multimodal
dandi.000488/0.230602.2022,found_in_pub,https://www.biorxiv.org/content/10.1101/2023.06.02.543483.abstract,0,Differential encoding of temporal context and expectation under representational drift across hierarchically connected areas,"['DG Wyrick', 'N Cain', 'RS Larsen', 'J Lecoq', 'M Valley']",2023,bioRxiv,The classic view that neural populations in sensory cortices preferentially encode responses  to incoming stimuli has been strongly challenged by recent experimental studies. Despite
