[
  {
    "sha": "45984ddafff961b0a64c173e43fdc2d4817aeb4b",
    "filename": "ndx_sound/README.md",
    "status": "added",
    "additions": 123,
    "deletions": 0,
    "changes": 123,
    "blob_url": "https://github.com/nwb-extensions/staged-extensions/blob/f993d17833cb66ae19237d62e4a088198925a48e/ndx_sound%2FREADME.md",
    "raw_url": "https://github.com/nwb-extensions/staged-extensions/raw/f993d17833cb66ae19237d62e4a088198925a48e/ndx_sound%2FREADME.md",
    "contents_url": "https://api.github.com/repos/nwb-extensions/staged-extensions/contents/ndx_sound%2FREADME.md?ref=f993d17833cb66ae19237d62e4a088198925a48e",
    "patch": "@@ -0,0 +1,123 @@\n+![PyPI](https://img.shields.io/pypi/v/ndx-sound?color=blue)\n+\n+# ndx-sound Extension for NWB\n+\n+NWB extension for sounds.\n+\n+## Installation\n+\n+```shell\n+pip install ndx-sound\n+```\n+\n+## Usage\n+\n+## Python\n+\n+### Add to an NWB file\n+```python\n+from pynwb import NWBFile\n+from scipy.io import wavfile\n+\n+from ndx_sound import AcousticWaveformSeries\n+\n+# The file path to the audio file\n+file_path = \"audio_data.wav\"\n+\n+# Read the audio file to get the rate of the recording and the waveform\n+sampling_rate, samples = wavfile.read(file_path)\n+\n+# Create an AcousticWaveformSeries object with a given name and description\n+acoustic_waveform_series = AcousticWaveformSeries(\n+    name=\"acoustic_stimulus\",\n+    data=samples,\n+    rate=sampling_rate,\n+    description=\"acoustic stimulus\",\n+)\n+\n+# Create an NWBFile object where this AcousticWaveformSeries can be added to\n+nwbfile = NWBFile(\n+    session_description=...,\n+    identifier=...,\n+    session_start_time=...,\n+)\n+\n+# If a recording of behavior, add to acquisition\n+nwbfile.add_acquisition(acoustic_waveform_series)\n+\n+# If a stimulus, add to stimulus\n+nwbfile.add_stimulus(acoustic_waveform_series)\n+```\n+\n+### Visualization\n+\n+#### Static widgets\n+Use `plot_sound` to visualize the waveform series and the spectrogram.\n+For longer recordings, specify the `time_window` argument for the start and end time\n+of the recording to be shown.\n+```python\n+from ndx_sound.widgets import plot_sound\n+\n+plot_sound(nwbfile.stimulus[\"acoustic_stimulus\"])\n+\n+# Show only from 5 to 15 seconds\n+plot_sound(nwbfile.stimulus[\"acoustic_stimulus\"], time_window=(5, 15))\n+```\n+\n+![](https://github.com/catalystneuro/ndx-sound/blob/main/ndx_sound_plot_timewindow.png)\n+\n+Use `acoustic_waveform_widget` to include an Audio element that plays the sound.\n+\n+```python\n+from ndx_sound.widgets import acoustic_waveform_widget\n+\n+acoustic_waveform_widget(nwbfile.stimulus[\"acoustic_stimulus\"], time_window=(5, 15))\n+```\n+\n+![](https://github.com/catalystneuro/ndx-sound/blob/main/acoustic_waveform_widget_timewindow.png)\n+\n+#### Interactive widgets\n+Use `AcousticWaveformWidget` to use a slider for interactively scrolling through the\n+recording and a button for changing the duration of the sound that is being shown.\n+\n+```python\n+from ndx_sound.widgets import AcousticWaveformWidget\n+\n+AcousticWaveformWidget(nwbfile.stimulus[\"acoustic_stimulus\"])\n+```\n+\n+![](https://github.com/catalystneuro/ndx-sound/blob/main/interactive_widget.png)\n+\n+### nwbwidgets\n+Use `load_widgets` to load the interactive sound widget into `nwb2widget`.\n+\n+```python\n+from ndx_sound.widgets import load_widgets\n+from nwbwidgets import nwb2widget\n+\n+load_widgets()\n+\n+nwb2widget(nwbfile)\n+```\n+\n+![](https://github.com/catalystneuro/ndx-sound/blob/main/ndx_sound_in_nwbwidgets.png)\n+\n+#### nwbwidgets and HDF5IO\n+When using `nwb2widget` with an NWB file that is read from disk, make sure to have\n+`load_widgets` imported within the same Jupyter cell where your data is being loaded.\n+\n+```python\n+from pynwb import NWBHDF5IO\n+from ndx_sound.widgets import load_widgets\n+from nwbwidgets import nwb2widget\n+\n+load_widgets()\n+\n+\n+io = NWBHDF5IO(\"audio.nwb\", mode=\"r\", load_namespaces=True)\n+nwbfile = io.read()\n+nwb2widget(nwbfile)\n+```\n+\n+---\n+This extension was created using [ndx-template](https://github.com/nwb-extensions/ndx-template)."
  },
  {
    "sha": "de5b90efdbf7ea9cff14ec658cce44dc7334af42",
    "filename": "ndx_sound/ndx-meta.yaml",
    "status": "added",
    "additions": 8,
    "deletions": 0,
    "changes": 8,
    "blob_url": "https://github.com/nwb-extensions/staged-extensions/blob/f993d17833cb66ae19237d62e4a088198925a48e/ndx_sound%2Fndx-meta.yaml",
    "raw_url": "https://github.com/nwb-extensions/staged-extensions/raw/f993d17833cb66ae19237d62e4a088198925a48e/ndx_sound%2Fndx-meta.yaml",
    "contents_url": "https://api.github.com/repos/nwb-extensions/staged-extensions/contents/ndx_sound%2Fndx-meta.yaml?ref=f993d17833cb66ae19237d62e4a088198925a48e",
    "patch": "@@ -0,0 +1,8 @@\n+name: ndx-sound\n+version: 0.2.0\n+src: https://github.com/catalystneuro/ndx-sound/\n+pip: https://pypi.org/project/ndx-sound/\n+license: BSD\n+maintainers:\n+  - szonjaweigl\n+  - bendichter"
  }
]
