[
  {
    "sha": "adeb9654e839212a0f5e6dffb28df83ff062d980",
    "filename": "ndx-depth-moseq/README.md",
    "status": "added",
    "additions": 258,
    "deletions": 0,
    "changes": 258,
    "blob_url": "https://github.com/nwb-extensions/staged-extensions/blob/aca2e742e3afd52e90ed659c5b428cd5cb5e8aa5/ndx-depth-moseq%2FREADME.md",
    "raw_url": "https://github.com/nwb-extensions/staged-extensions/raw/aca2e742e3afd52e90ed659c5b428cd5cb5e8aa5/ndx-depth-moseq%2FREADME.md",
    "contents_url": "https://api.github.com/repos/nwb-extensions/staged-extensions/contents/ndx-depth-moseq%2FREADME.md?ref=aca2e742e3afd52e90ed659c5b428cd5cb5e8aa5",
    "patch": "@@ -0,0 +1,258 @@\n+# ndx-depth-moseq Extension for NWB\n+\n+ndx-depth-moseq is a standardized format for storing the output of [depth-moseq](https://dattalab.github.io/moseq2-website/index.html), an automatic motion sequencing algorithm, in NWB.  Currently, this extension only supports the output of depth-moseq-extract, but will be extended as needed to cover the other types of depth-moseq outputs.\n+\n+This extension consists of 3 new neurodata types:\n+\n+- `DepthImageSeries`, which is a simple extension of `pynwb.image.ImageSeries` for depth video with a constant reference depth.\n+- `MoSeqExtractParameterGroup`, which stores all the various parameters from the depth-moseq-extract algorithm.\n+- `MoSeqExtractGroup`, which stores all the relevant depth-moseq outputs including the `DepthImageSeries`, `MoSeqExtractParameterGroup`, as well as various native neurodata types such as the `Position`.\n+\n+## Installation\n+```\n+pip install ndx-depth-moseq\n+```\n+\n+## Usage\n+\n+```python\n+\"\"\"Example of usage with mock data.\"\"\"\n+from datetime import datetime\n+from pytz import timezone\n+import numpy as np\n+from pynwb.image import GrayscaleImage, ImageMaskSeries\n+from pynwb import NWBFile, TimeSeries\n+from pynwb.behavior import (\n+    CompassDirection,\n+    Position,\n+    SpatialSeries,\n+)\n+from ndx_depth_moseq import DepthImageSeries, MoSeqExtractGroup, MoSeqExtractParameterGroup\n+\n+# Define mock data (this will be replaced with the actual data) \n+version = \"0.1.0\"\n+num_frames = 10\n+num_rows = 512\n+num_cols = 424\n+processed_depth_video = np.zeros((num_frames, num_rows, num_cols))\n+loglikelihood_video = np.zeros((num_frames, num_rows, num_cols))\n+timestamps = np.arange(num_frames)\n+background = np.zeros((num_rows, num_cols))\n+is_flipped = np.zeros(num_frames, dtype=bool)\n+roi = np.zeros((num_rows, num_cols))\n+true_depth = 1.0\n+kinematic_var_names = ['centroid_x_mm', 'centroid_y_mm', 'height_ave_mm', 'angle', 'velocity_2d_mm', 'velocity_3d_mm', 'velocity_theta', 'length_mm', 'width_mm', 'area_px', 'width_px', 'length_px']\n+kinematic_vars = {k: np.zeros(num_frames) for k in kinematic_var_names}\n+kinematic_vars['length_px'] += 1\n+kinematic_vars['width_px'] += 1\n+parameters = {\n+    'angle_hampel_sig': np.array([3], dtype=np.int64)[0],\n+    'angle_hampel_span': np.array([5], dtype=np.int64)[0],\n+    'bg_roi_depth_range_min': np.array([0], dtype=np.int64)[0],\n+    'bg_roi_depth_range_max': np.array([1000], dtype=np.int64)[0],\n+    'bg_roi_dilate_x': np.array([10], dtype=np.int64)[0],\n+    'bg_roi_dilate_y': np.array([10], dtype=np.int64)[0],\n+    'bg_roi_fill_holes': True,\n+    'bg_roi_gradient_filter': True,\n+    'bg_roi_gradient_kernel': np.array([5], dtype=np.int64)[0],\n+    'bg_roi_gradient_threshold': np.array([10], dtype=np.int64)[0],\n+    'bg_roi_index': np.array([0], dtype=np.int64)[0],\n+    'bg_roi_shape': 'ellipse',\n+    'bg_roi_weight_area': np.array([0.5], dtype=np.float64)[0],\n+    'bg_roi_weight_extent': np.array([0.5], dtype=np.float64)[0],\n+    'bg_roi_weight_dist': np.array([0.5], dtype=np.float64)[0],\n+    'cable_filter_iters': np.array([5], dtype=np.int64)[0],\n+    'cable_filter_shape': 'ellipse',\n+    'cable_filter_size_x': np.array([5], dtype=np.int64)[0],\n+    'cable_filter_size_y': np.array([5], dtype=np.int64)[0],\n+    'centroid_hampel_sig': np.array([3], dtype=np.int64)[0],\n+    'centroid_hampel_span': np.array([5], dtype=np.int64)[0],\n+    'chunk_overlap': np.array([0], dtype=np.int64)[0],\n+    'chunk_size': np.array([100], dtype=np.int64)[0],\n+    'compress': False,\n+    'compress_chunk_size': np.array([100], dtype=np.int64)[0],\n+    'compress_threads': np.array([1], dtype=np.int64)[0],\n+    'config_file': 'config.yaml',\n+    'crop_size_width': np.array([512], dtype=np.int64)[0],\n+    'crop_size_height': np.array([424], dtype=np.int64)[0],\n+    'flip_classifier': 'flip_classifier.pkl',\n+    'flip_classifier_smoothing': np.array([5], dtype=np.int64)[0],\n+    'fps': np.array([30], dtype=np.int64)[0],\n+    'frame_dtype': 'uint16',\n+    'frame_trim_beginning': np.array([0], dtype=np.int64)[0],\n+    'frame_trim_end': np.array([0], dtype=np.int64)[0],\n+    'max_height': np.array([1000], dtype=np.int64)[0],\n+    'min_height': np.array([0], dtype=np.int64)[0],\n+    'model_smoothing_clips_x': np.array([5], dtype=np.int64)[0],\n+    'model_smoothing_clips_y': np.array([5], dtype=np.int64)[0],\n+    'spatial_filter_size': np.array([5], dtype=np.int64)[0],\n+    'tail_filter_iters': np.array([5], dtype=np.int64)[0],\n+    'tail_filter_shape': 'ellipse',\n+    'tail_filter_size_x': np.array([5], dtype=np.int64)[0],\n+    'tail_filter_size_y': np.array([5], dtype=np.int64)[0],\n+    'temporal_filter_size': np.array([5], dtype=np.int64)[0],\n+    'tracking_model_init': 'mean',\n+    'tracking_model_ll_clip': np.array([5], dtype=np.int64)[0],\n+    'tracking_model_ll_threshold': np.array([5], dtype=np.int64)[0],\n+    'tracking_model_mask_threshold': np.array([5], dtype=np.int64)[0],\n+    'tracking_model_segment': True,\n+    'use_plane_bground': True,\n+    'use_tracking_model': True,\n+    'write_movie': False,\n+}\n+\n+# Create the NWB file\n+nwbfile = NWBFile(\n+    session_description=\"session_description\",\n+    identifier=\"identifier\",\n+    session_start_time=datetime.now(timezone(\"US/Pacific\")),\n+)\n+\n+# Add Imaging Data\n+kinect = nwbfile.create_device(name=\"kinect\", manufacturer=\"Microsoft\", description=\"Microsoft Kinect 2\")\n+flipped_series = TimeSeries(\n+    name=\"flipped_series\",\n+    data=is_flipped,\n+    unit=\"a.u.\",\n+    timestamps=timestamps,\n+    description=\"Boolean array indicating whether the image was flipped left/right\",\n+)\n+processed_depth_video = DepthImageSeries(\n+    name=\"processed_depth_video\",\n+    data=processed_depth_video,\n+    unit=\"millimeters\",\n+    format=\"raw\",\n+    timestamps=flipped_series.timestamps,\n+    description=\"3D array of depth frames (nframes x w x h, in mm)\",\n+    distant_depth=true_depth,\n+    device=kinect,\n+)\n+loglikelihood_video = ImageMaskSeries(\n+    name=\"loglikelihood_video\",\n+    data=loglikelihood_video,\n+    masked_imageseries=processed_depth_video,\n+    unit=\"a.u.\",\n+    format=\"raw\",\n+    timestamps=flipped_series.timestamps,\n+    description=\"Log-likelihood values from the tracking model (nframes x w x h)\",\n+    device=kinect,\n+)\n+background = GrayscaleImage(\n+    name=\"background\",\n+    data=background,\n+    description=\"Computed background image.\",\n+)\n+roi = GrayscaleImage(\n+    name=\"roi\",\n+    data=roi,\n+    description=\"Computed region of interest.\",\n+)\n+\n+# Add Position Data\n+position_data = np.vstack(\n+    (kinematic_vars[\"centroid_x_mm\"], kinematic_vars[\"centroid_y_mm\"], kinematic_vars[\"height_ave_mm\"])\n+).T\n+position_series = SpatialSeries(\n+    name=\"position\",\n+    description=\"Position (x, y, height) in an open field.\",\n+    data=position_data,\n+    timestamps=flipped_series.timestamps,\n+    reference_frame=\"top left\",\n+    unit=\"mm\",\n+)\n+position = Position(spatial_series=position_series, name=\"position\")\n+\n+# Add Compass Direction Data\n+heading_2d_series = SpatialSeries(\n+    name=\"heading_2d\",\n+    description=\"Head orientation.\",\n+    data=kinematic_vars[\"angle\"],\n+    timestamps=flipped_series.timestamps,\n+    reference_frame=\"top left\",\n+    unit=\"radians\",\n+)\n+heading_2d = CompassDirection(spatial_series=heading_2d_series, name=\"heading_2d\")\n+\n+# Add speed/velocity data\n+speed_2d = TimeSeries(\n+    name=\"speed_2d\",\n+    description=\"2D speed (mm / frame), note that missing frames are not accounted for\",\n+    data=kinematic_vars[\"velocity_2d_mm\"],\n+    timestamps=flipped_series.timestamps,\n+    unit=\"mm/frame\",\n+)\n+speed_3d = TimeSeries(\n+    name=\"speed_3d\",\n+    description=\"3D speed (mm / frame), note that missing frames are not accounted for\",\n+    data=kinematic_vars[\"velocity_3d_mm\"],\n+    timestamps=flipped_series.timestamps,\n+    unit=\"mm/frame\",\n+)\n+angular_velocity_2d = TimeSeries(\n+    name=\"angular_velocity_2d\",\n+    description=\"Angular component of velocity (arctan(vel_x, vel_y))\",\n+    data=kinematic_vars[\"velocity_theta\"],\n+    timestamps=flipped_series.timestamps,\n+    unit=\"radians/frame\",\n+)\n+\n+# Add length/width/area data\n+length = TimeSeries(\n+    name=\"length\",\n+    description=\"Length of mouse (mm)\",\n+    data=kinematic_vars[\"length_mm\"],\n+    timestamps=flipped_series.timestamps,\n+    unit=\"mm\",\n+)\n+width = TimeSeries(\n+    name=\"width\",\n+    description=\"Width of mouse (mm)\",\n+    data=kinematic_vars[\"width_mm\"],\n+    timestamps=flipped_series.timestamps,\n+    unit=\"mm\",\n+)\n+width_px_to_mm = kinematic_vars[\"width_mm\"] / kinematic_vars[\"width_px\"]\n+length_px_to_mm = kinematic_vars[\"length_mm\"] / kinematic_vars[\"length_px\"]\n+area_px_to_mm2 = width_px_to_mm * length_px_to_mm\n+area_mm2 = kinematic_vars[\"area_px\"] * area_px_to_mm2\n+area = TimeSeries(\n+    name=\"area\",\n+    description=\"Pixel-wise area of mouse (mm^2)\",\n+    data=area_mm2,\n+    timestamps=flipped_series.timestamps,\n+    unit=\"mm^2\",\n+)\n+\n+# Add Parameters\n+parameters = MoSeqExtractParameterGroup(name=\"parameters\", **parameters)\n+\n+# Add MoseqExtractGroup\n+moseq_extract_group = MoSeqExtractGroup(\n+    name=\"moseq_extract_group\",\n+    version=version,\n+    parameters=parameters,\n+    background=background,\n+    processed_depth_video=processed_depth_video,\n+    loglikelihood_video=loglikelihood_video,\n+    roi=roi,\n+    flipped_series=flipped_series,\n+    depth_camera=kinect,\n+    position=position,\n+    heading_2d=heading_2d,\n+    speed_2d=speed_2d,\n+    speed_3d=speed_3d,\n+    angular_velocity_2d=angular_velocity_2d,\n+    length=length,\n+    width=width,\n+    area=area,\n+)\n+# Add data into a behavioral processing module\n+behavior_module = nwbfile.create_processing_module(\n+    name=\"behavior\",\n+    description=\"Processed behavioral data from MoSeq\",\n+)\n+behavior_module.add(moseq_extract_group)\n+```\n+\n+---\n+This extension was created using [ndx-template](https://github.com/nwb-extensions/ndx-template)."
  },
  {
    "sha": "d85eb974d1a2a8829d07966a6979f0e0474aeaf0",
    "filename": "ndx-depth-moseq/ndx-meta.yaml",
    "status": "added",
    "additions": 8,
    "deletions": 0,
    "changes": 8,
    "blob_url": "https://github.com/nwb-extensions/staged-extensions/blob/aca2e742e3afd52e90ed659c5b428cd5cb5e8aa5/ndx-depth-moseq%2Fndx-meta.yaml",
    "raw_url": "https://github.com/nwb-extensions/staged-extensions/raw/aca2e742e3afd52e90ed659c5b428cd5cb5e8aa5/ndx-depth-moseq%2Fndx-meta.yaml",
    "contents_url": "https://api.github.com/repos/nwb-extensions/staged-extensions/contents/ndx-depth-moseq%2Fndx-meta.yaml?ref=aca2e742e3afd52e90ed659c5b428cd5cb5e8aa5",
    "patch": "@@ -0,0 +1,8 @@\n+name: ndx-depth-moseq\n+version: 0.1.2\n+src: https://github.com/catalystneuro/ndx-depth-moseq\n+pip: https://pypi.org/project/ndx-depth-moseq/\n+license: BSD-3\n+maintainers:\n+  - pauladkisson\n+"
  }
]
